{
  "IcoMoonType": "selection",
  "icons": [
    {
      "icon": {
        "paths": [
          "M578.048 520.448c37.376-5.376 82.688-19.456 104.96-51.968 5.376-7.936-1.792-19.712-11.008-19.2-15.872 0.768-31.744 1.024-47.36 0.512-19.456-0.512-47.36 0.512-63.744-11.52-3.584-2.56-9.216-2.048-12.8 0-16.384 8.96-30.464 23.808-41.728 38.144-29.44 37.632-43.52 83.456-48.384 130.56 4.352-4.352 8.448-8.448 12.8-12.8-26.88 1.536-56.576 1.792-82.176 10.24 5.376 3.072 10.496 5.888 15.872 8.96-8.448-25.088-35.072-40.96-59.136-47.872-30.976-8.704-64.256-6.144-95.232-0.256-13.824 2.56-27.904 2.816-41.984 4.096-23.040 2.048-46.336 4.864-68.608 11.264-15.36 4.352-37.376 12.288-38.656 31.232-0.256 2.304 0 4.096 0.512 6.656 0.256 1.28 1.28 4.352 0.512 0 0.512 2.048 0.512 4.352 1.024 6.4 1.792 7.424 6.4 13.824 12.032 18.944 15.872 14.848 44.544 23.040 65.536 19.456 22.528-3.84 45.312-7.168 68.096-9.216 14.336-1.28 28.672-2.304 43.008-2.048 8.448 0.256 19.712 0.256 25.6 4.352-2.048-3.584-4.352-7.424-6.4-11.008 3.328 26.368 27.136 43.776 51.456 50.176 48.896 13.312 109.312 0.512 145.92-34.56-5.12 0.768-10.24 1.28-15.616 2.048 35.072 24.32 71.168 50.176 110.080 67.584 17.152 7.68 30.464 4.864 48.64 2.56 14.080-1.792 27.904-3.84 41.984-6.4 9.728-2.048 21.504-3.84 29.952-9.728-5.12-0.768-10.24-1.28-15.616-2.048 22.016 22.528 55.552 39.168 87.552 38.144 29.184-0.768 55.040-16.384 74.24-37.632 15.104-16.896 22.784-33.024 18.432-56.064-4.352-22.784-23.040-32.512-37.12-48.384-8.192-8.96-16.128-18.432-22.272-28.928-2.816-5.12-3.584-9.728-5.376-15.104-13.824-39.936-63.232-29.952-87.296-5.632-35.328 35.584-35.584 98.816-31.744 144.64 1.536 16.384 27.136 16.384 25.6 0-3.584-39.936-3.84-87.296 19.968-121.6 1.28-1.792 2.048-3.072 5.12-5.888 3.584-3.328 7.68-5.632 11.776-7.936 14.848-8.192 23.808-7.424 32.256 4.608 1.28 1.792-0.512-2.048 0.256 0.768-1.024-3.84 1.024 5.888 1.792 7.424 3.072 9.216 8.96 17.408 14.848 25.344 9.984 13.312 20.48 26.112 33.792 36.096 12.288 9.216 18.688 26.624 11.776 41.472-4.352 9.216-17.152 19.968-25.344 26.112-8.96 6.912-19.2 12.032-30.464 14.080-28.672 5.632-59.904-9.728-79.36-29.696-3.584-3.84-11.008-5.12-15.616-2.048-6.656 4.608-17.92 6.144-26.368 7.68-12.032 2.304-24.064 4.096-36.352 5.632-8.192 1.024-16.64 2.304-24.832 2.816-2.816 0.256 4.096 1.024 0.512 0.256-1.28-0.256-2.56-0.512-3.84-1.024-3.84-1.536-7.424-3.072-11.008-4.864-36.096-17.92-69.888-41.216-102.912-64-4.608-3.328-11.52-1.792-15.616 2.048-27.136 25.856-61.44 32.512-96.256 31.488-22.016-0.768-46.592-7.168-56.064-26.624-1.024-1.792 0.768 2.048-0.256-1.024-0.256-0.768-0.512-1.792-0.768-2.816-0.256-0.512-0.256-1.024-0.256-1.536 2.304 6.912-1.536-4.096-3.328-5.888-6.912-7.424-20.48-8.448-29.952-9.216-30.72-2.56-62.208 2.048-92.672 6.4-11.008 1.536-22.016 3.072-33.024 5.12-10.496 1.792-21.76-1.536-31.744-5.376-9.216-3.584-15.616-9.984-17.408-14.592-1.536-4.352 1.792 4.864-0.512-3.072-0.768-2.816-0.768-1.536-0.768-1.28 1.28 1.28-2.048 2.048 0.512 0.256 30.72-19.712 78.592-17.408 115.712-20.992 25.088-2.56 48.384-8.704 73.728-6.4 14.592 1.28 29.184 4.864 41.728 12.032 4.352 2.56 7.68 4.864 11.264 8.192 1.536 1.536 3.072 3.072 4.352 4.608 0.512 0.512 1.024 1.28 1.536 1.792 1.792 2.048-1.024-1.536 0.512 0.768 1.536 2.048 2.56 4.096 3.84 6.4 2.048 3.584-0.256-1.024 0 0 2.048 6.4 8.704 11.264 15.872 8.96 23.808-7.68 50.688-7.936 75.52-9.216 7.424-0.512 12.032-5.632 12.8-12.8 4.096-41.472 17.152-83.456 43.776-116.224 9.984-12.544 20.736-23.552 33.792-30.464-4.352 0-8.704 0-12.8 0 18.944 13.824 48.896 13.824 71.168 14.848 17.664 0.768 35.328 0.768 52.992-0.256-3.584-6.4-7.424-12.8-11.008-19.2-17.92 26.368-59.904 36.096-89.6 40.192-17.664 0.768-10.752 25.344 5.376 23.040v0z",
          "M330.24 652.8c15.616-15.36 37.632-26.88 60.16-24.32 16.384 1.792 16.128-23.808 0-25.6-28.672-3.072-58.112 12.032-78.080 32-11.776 11.52 6.144 29.696 17.92 17.92v0z",
          "M466.432 620.288c-5.12-2.048 0.512 0.256 2.304 1.28 3.072 1.536 6.656 3.84 8.704 5.632 6.912 5.632 11.008 12.032 8.192 20.992-5.12 15.616 19.712 22.528 24.576 6.912 8.96-27.648-13.312-49.664-37.12-59.392-6.4-2.56-14.080 2.816-15.872 8.96-1.792 7.168 2.816 13.056 9.216 15.616v0z",
          "M29.44 628.48c28.416 3.584 55.552-13.568 69.888-37.12-2.56 2.048-5.12 3.84-7.68 5.888 21.248-7.424 46.848-12.8 69.12-7.424 8.192 2.048 15.36 6.912 23.296 2.304 5.376-3.328 8.704-9.216 10.24-15.104 3.072-10.24 1.792-21.504 0.512-31.744-1.792-13.312-3.84-27.904-9.472-39.936-10.24-21.76 0.256-39.68 22.016-52.736 3.584-2.304 6.656-6.656 6.4-11.008-1.024-18.944 7.424-41.984 26.112-53.504 9.216-5.632 19.712-8.448 30.208-9.728 8.704-1.024 17.92 1.024 25.6-3.328 9.728-5.12 18.688-12.288 28.16-18.176 37.12-22.272 77.568-43.008 120.32-51.2 18.432-3.584 38.656-4.096 55.808 4.096 1.536 0.768 3.84 2.304 7.168 4.864 6.144 5.12 12.544 9.984 18.688 15.104 19.968 15.616 40.448 30.976 61.696 45.056 18.944 12.288 40.192 26.368 62.976 30.72-3.072-4.096-6.144-8.192-9.472-12.288 0 23.808 2.56 58.112 24.32 72.448 5.632 3.84 14.336 1.28 17.408-4.608 7.936-14.080 26.624-36.352 43.52-34.56 10.496 1.024 22.272 6.912 32.768 9.472 13.824 3.328 28.928 6.912 43.264 5.632-3.072-1.28-6.144-2.56-8.96-3.84 0.512 0.512 1.28 1.28 1.536 1.792 0 0-1.28-1.536 0.256 0.512 1.024 1.536 2.048 3.072 3.072 4.352 5.376 8.192 9.728 16.896 13.568 25.856 9.728 23.296 15.872 48.896 16.128 74.24 0.256 21.76 1.024 44.032 5.376 65.536 1.792 8.192 4.864 20.736 14.336 23.040 5.376 1.28 12.544-1.024 17.664-1.536 26.112-2.816 59.136-5.376 81.664 10.496 4.864 3.328 11.52 1.536 15.616-2.048 9.984-8.96 27.136-22.016 41.216-19.712 16.128 2.56 23.040-22.016 6.912-24.576-24.832-4.096-48.384 10.24-66.304 26.368 5.12-0.768 10.24-1.28 15.616-2.048-30.464-21.504-77.312-17.664-112.384-11.52 4.096 1.024 8.192 2.304 12.544 3.328 1.28 1.536-0.256-0.768-0.256-1.792-0.256-2.56-1.28-5.376-1.792-7.936-1.28-6.4-1.792-12.8-2.304-19.2-1.024-12.544-1.536-25.088-1.792-37.632-0.512-29.952-7.68-60.16-19.456-87.552-4.864-11.52-15.104-39.168-29.952-41.728-6.4-1.024-13.056 0-19.712-1.024-8.704-1.28-17.408-3.584-25.856-5.888-8.96-2.304-17.92-6.4-27.136-8.192-28.672-5.888-57.856 24.32-70.656 46.848 5.888-1.536 11.776-3.072 17.408-4.608-7.424-4.864-8.96-20.736-9.984-28.672-1.024-7.168-1.536-14.336-1.536-21.76 0-5.376-3.84-11.264-9.472-12.288-20.48-4.096-39.424-16.896-56.832-28.16-20.224-13.056-39.424-27.392-58.368-42.496-9.472-7.424-18.432-16.896-29.184-22.528-19.2-10.24-41.984-11.264-63.232-8.448-47.104 6.144-91.904 28.16-132.352 51.712-11.52 6.912-23.040 13.824-34.048 21.504-0.512 0.512-1.28 1.024-2.048 1.28 6.912-2.56-2.816-1.792-4.608-1.536-3.84 0.256-7.936 0.512-11.776 1.024-12.288 1.536-24.32 4.864-35.072 11.008-26.88 14.848-43.776 46.848-41.984 77.568 2.048-3.584 4.352-7.424 6.4-11.008-18.432 11.008-34.816 26.368-38.4 48.384-2.304 14.080 1.792 25.344 6.656 38.144 5.376 13.824 8.96 32 7.936 47.36-0.256 2.304-0.512 3.584-0.768 5.888-0.256 1.792-0.768 1.28-0.256 1.024-0.512 0 2.048-1.792 3.072-2.048 3.328 0.512 6.656 0.768 9.984 1.28-29.184-13.312-65.792-8.96-95.488 1.28-5.632 2.048-8.192 4.864-11.776 9.984-5.376 7.424-11.776 13.568-20.48 17.152-7.68 3.328-16.896 4.864-25.344 3.84-16.64-1.792-16.384 23.808-0.256 25.856v0z"
        ],
        "attrs": [
          {
            "fill": "rgb(2, 75, 117)"
          },
          {
            "fill": "rgb(2, 75, 117)"
          },
          {
            "fill": "rgb(2, 75, 117)"
          },
          {
            "fill": "rgb(2, 75, 117)"
          }
        ],
        "isMulticolor": false,
        "isMulticolor2": false,
        "grid": 24,
        "tags": [
          "ROCAS V2"
        ],
        "colorPermutations": {
          "27511716751171": [
            {
              "f": 0
            },
            {
              "f": 0
            },
            {
              "f": 0
            },
            {
              "f": 0
            }
          ]
        }
      },
      "attrs": [
        {
          "fill": "rgb(2, 75, 117)"
        },
        {
          "fill": "rgb(2, 75, 117)"
        },
        {
          "fill": "rgb(2, 75, 117)"
        },
        {
          "fill": "rgb(2, 75, 117)"
        }
      ],
      "properties": {
        "order": 98,
        "id": 17,
        "name": "ROCAS",
        "prevSize": 24,
        "code": 59649
      },
      "setIdx": 0,
      "setId": 2,
      "iconIdx": 0
    },
    {
      "icon": {
        "paths": [
          "M691.2 479.744h-37.888v-29.696c0-4.096-3.584-7.68-7.68-7.68s-7.168 3.072-7.168 7.68v29.696h-7.68v-14.848c0-4.096-3.072-7.68-7.68-7.68-4.096 0-7.168 3.584-7.168 7.68v14.848h-7.168v-29.696c0-4.096-3.584-7.68-7.68-7.68s-7.168 3.072-7.168 7.68v29.696h-7.68c-1.024-35.84-9.728-189.952-67.072-285.184 13.312-5.632 23.040-18.944 23.040-34.304 0-1.536-0.512-2.56-0.512-4.096l20.48-5.632 4.608-11.264 9.728 7.68 86.016-23.040-2.048-7.168c-7.168-26.112-57.856-38.4-106.496-25.088-24.576 6.656-47.104 18.944-62.464 34.304-0.512 0-0.512 0-1.024 0.512-9.728-20.48-29.184-41.472-53.248-55.808-20.48-12.288-43.52-19.968-65.024-20.992s-37.888 4.608-44.544 15.872l-4.096 6.144 76.288 46.080 11.264-4.608 1.024 12.288 9.728 5.632c-12.8 0-26.112 1.536-39.424 5.12-23.552 6.144-44.544 17.92-60.416 32.256-15.872 14.848-23.040 30.208-19.456 43.008l2.048 7.168 86.016-23.040 4.608-11.264 9.728 7.68 19.456-5.12c-1.024 3.584-2.048 7.168-2.048 11.264 0 20.48 16.896 37.376 37.376 37.376 8.192 0 15.872-3.072 22.528-7.68 1.536 8.704 3.072 16.896 4.096 25.088 0 1.024 0.512 2.56 0.512 4.096 1.536 10.752 3.072 20.992 4.096 31.232 0 0 0 0 0 0 11.264 96.256 4.608 164.352-19.968 192h-4.096v-22.528c0-4.096-3.584-7.168-7.168-7.168-4.096 0-7.68 3.072-7.68 7.168v22.528h-22.528c4.608-6.144 7.68-13.824 7.68-22.528 0-20.48-16.896-37.376-37.376-37.376s-36.864 16.896-36.864 37.376c0 8.192 3.072 15.872 7.68 22.528h-24.064c0 5.12 0.512 9.728 0.512 14.848h344.576c0-4.608 0-9.216 0-14.336-0-1.024-0.512-1.024-0.512-1.024M400.384 479.744c-12.288 0-22.528-10.24-22.528-22.528s10.24-22.528 22.528-22.528c12.288 0 22.528 10.24 22.528 22.528s-10.24 22.528-22.528 22.528M565.76 412.672h-55.808c1.536-16.384 2.56-33.792 2.048-52.224h46.592c3.072 18.432 5.632 36.352 7.168 52.224M556.032 345.6h-44.544c-0.512-16.896-2.048-34.304-4.096-52.224h36.352c4.608 17.92 8.704 35.328 12.288 52.224M519.68 226.816c0 0.512 0.512 1.024 0.512 1.536 1.536 3.072 2.56 6.144 4.096 9.216 0.512 1.024 1.024 2.048 1.536 3.072 1.024 2.56 2.56 5.632 3.584 8.704 0.512 1.024 1.024 2.56 1.536 3.584 1.024 3.072 2.56 6.144 3.584 9.728 1.024 3.072 2.048 6.144 3.072 9.216 0.512 1.024 0.512 2.048 1.024 3.072 0.512 1.536 1.024 2.56 1.024 4.096h-33.792c-2.048-17.408-5.12-34.816-7.68-51.712 0 0 0 0 0 0l21.504-0.512zM557.568 105.472c37.888-10.24 72.192-2.56 83.968 8.192l-61.952 16.896-19.456-15.36-9.216 23.040-13.824 3.584c0 0 0-0.512-0.512-0.512-1.024-1.536-2.048-3.072-3.072-4.608-0.512-0.512-0.512-1.024-1.024-1.536-1.024-1.024-2.048-2.56-3.584-3.584-0.512-0.512-1.024-1.024-2.048-1.536-1.024-1.024-2.56-1.536-3.584-2.56-1.024-0.512-1.536-1.024-2.56-1.536s-2.56-1.024-3.584-1.536c-0.512 0-1.024-0.512-1.536-0.512 11.776-7.68 26.624-14.336 41.984-18.432M401.408 100.352l-54.784-33.28c5.632-2.56 14.848-4.096 25.088-3.584 18.432 1.024 39.936 8.192 57.856 18.944 26.624 15.872 41.984 36.864 48.64 51.712-0.512 0.512-1.024 1.536-1.536 2.048s-1.024 1.536-1.536 2.048c-0.512 0.512-1.024 1.536-1.536 2.56 0 0 0 0.512-0.512 0.512-4.096-2.048-8.192-4.096-12.8-5.632l-33.28-19.968-2.56-24.576-23.040 9.216zM408.576 175.104l-19.456-15.36-9.216 23.040-61.952 16.384c2.048-6.144 7.168-13.312 14.848-20.48 13.824-12.8 33.28-23.040 53.76-28.672 12.288-3.072 24.576-4.608 35.84-4.608 11.776 0 22.528 1.536 31.232 4.096l13.824 8.192c0 0.512 0 0.512 0 1.024l-4.096 1.024c0 0-0.512 0-0.512 0-1.024 0-1.536 0-2.56 0-0.512 0-1.024 0-1.536 0-1.536 0-3.584 0-5.12 0.512-0.512 0-1.024 0-2.048 0.512-1.536 0.512-3.072 1.024-4.096 1.536s-2.048 0.512-3.072 1.024c-0.512 0-1.024 0.512-1.536 1.024-1.536 1.024-3.072 1.536-4.608 2.56l-29.696 8.192zM480.256 206.848c0 0 0 0 0 0-3.584 7.68-11.264 12.8-19.968 12.8-12.288 0-22.528-10.24-22.528-22.528 0-7.168 3.584-13.312 8.704-17.408h0.512c1.024-0.512 2.048-1.536 3.072-2.048 0 0 0.512 0 0.512-0.512 1.024-0.512 1.536-0.512 2.56-1.024 0.512 0 1.536-0.512 2.048-0.512s1.024 0 1.536-0.512c1.024 0 1.536 0 2.56-0.512 1.024 0 2.048 0 2.56 0l2.56 0.512c3.072 0.512 6.144 2.048 8.704 3.584 0 0 0 0 0 0 1.024 1.536 1.536 2.56 2.56 4.096 0.512 0.512 0.512 0.512 1.024 1.024 1.024 1.024 2.048 2.048 3.072 3.072 0.512 1.024 1.024 2.56 1.536 3.584 0 0.512 0 0.512 0.512 1.024 0.512 1.536 0.512 3.584 0.512 5.12 0 3.584-0.512 7.168-2.048 10.24M490.496 177.152c-2.048-2.048-4.096-4.096-5.632-6.656 0 0 0 0 0 0-1.024-1.536-1.536-3.584-2.048-5.632v-1.536c0-1.024-0.512-2.048-0.512-3.584 0-1.024 0-2.048 0.512-3.072 0-0.512 0-1.536 0.512-2.048v-0.512c0-1.024 0.512-2.048 1.024-2.56 0.512-1.024 1.024-2.048 1.536-2.56 0 0 0.512-0.512 0.512-0.512 1.536-2.048 3.072-4.096 5.12-5.632l1.536-1.024c1.024-0.512 2.048-1.024 3.072-1.536l2.048-0.512c1.024-0.512 2.56-0.512 3.584-1.024 1.024 0 2.56-0.512 3.584-0.512 1.536 0 2.56 0 4.096 0.512 0.512 0 1.024 0 1.536 0.512 0.512 0 1.536 0.512 2.048 0.512s1.024 0.512 1.536 0.512c0.512 0 1.024 0.512 1.536 1.024 4.608 2.56 8.192 6.656 10.24 12.288l0.512 1.024c0.512 2.048 1.024 4.096 1.024 6.144 0 11.776-8.704 20.992-19.968 22.016 0 0 0 0 0 0h-2.048c-7.68-0.512-12.288-3.072-15.36-5.632M495.104 211.968c0-0.512 0-1.024-0.512-1.536 0-0.512 0.512-1.024 0.512-1.536 0.512-1.536 1.024-3.072 1.536-4.608 0.512-2.048 0.512-4.608 0.512-7.168 0 0 0-0.512 0-0.512s0.512 0 0.512 0c2.048 0.512 3.584 0.512 5.632 0.512 3.072 4.608 6.144 9.728 8.704 14.848 0 0-16.896 0-16.896 0zM489.984 479.744c8.704-13.824 14.336-31.744 17.92-52.224h59.904c2.56 23.552 3.072 41.984 3.584 52.224h-81.408zM941.056 376.832c-9.728-10.24-23.040-15.872-37.376-15.872h-0.512c-23.552 0-44.032 15.872-50.688 37.376l-17.408 5.12c-17.92 5.632-31.744 19.456-36.864 37.376s-1.024 37.376 11.264 51.2l32.256 37.376-3.072 40.448c-0.512 8.704-4.096 17.408-10.24 23.552l-94.208 102.912c-4.608 5.12-12.8 5.632-17.92 1.536-3.072-2.56-4.608-5.632-5.12-9.216s1.024-7.168 3.584-10.24l81.92-90.112c16.384-17.92 15.872-46.080-0.512-63.488-8.704-9.216-20.992-14.848-33.792-14.848s-25.088 5.12-34.304 14.336l-135.68 139.264c-1.024 1.024-2.048 2.56-3.072 3.584-26.624 29.184-37.888 70.656-30.72 110.592l29.184 160.256c1.536 8.704 9.728 14.336 18.432 12.8s14.336-9.728 12.8-18.432l-29.184-160.256c-5.632-30.208 3.072-61.44 23.040-83.456 1.024-1.024 1.536-2.048 2.56-2.56l135.68-139.264c3.072-3.072 7.168-4.608 11.264-4.608s8.192 2.048 11.264 5.12c5.632 6.144 5.632 15.36 0 20.992l-81.92 90.112c-8.192 9.216-12.288 21.504-11.264 33.792s7.168 23.552 16.896 31.232c18.432 14.336 45.056 12.288 60.416-5.12l94.72-102.912c10.752-11.776 17.408-27.136 18.432-43.008l11.264-159.744c1.024-11.264 10.24-19.968 21.504-19.968v0c5.632 0 11.264 2.56 15.36 6.656s6.144 9.728 6.144 15.36l-2.56 214.528c0 17.92-6.656 34.816-18.432 48.128l-143.36 161.792c-9.728 11.264-15.36 25.6-15.36 40.96l0.512 86.016c0 8.704 7.168 15.36 15.872 15.36v0c8.704 0 15.872-7.168 15.872-15.872l-0.512-86.016c0-7.168 2.56-14.336 7.168-19.968l143.872-161.792c16.896-18.944 26.112-43.52 26.624-68.608l2.56-214.528c-1.024-14.336-6.656-28.16-16.384-37.888M844.8 485.376l-11.776-13.312c-5.12-6.144-7.168-14.336-5.12-22.016s8.192-13.824 15.872-16.384l4.096-1.536-3.072 53.248zM404.992 673.792c-1.024-1.024-2.048-2.56-3.584-3.584l-135.68-139.264c-9.216-9.216-20.992-14.336-34.304-14.336-12.8 0-25.088 5.632-33.792 14.848-16.384 17.92-16.896 45.568-0.512 63.488l81.92 90.112c2.56 2.56 3.584 6.144 3.584 10.24-0.512 3.584-2.048 7.168-5.12 9.216-5.632 4.096-13.312 3.584-17.92-1.536l-94.72-102.912c-6.144-6.656-9.728-14.848-10.24-23.552l-3.072-43.008 30.208-34.816c12.288-14.336 16.384-33.28 11.264-51.2s-18.944-32.256-36.864-37.376l-14.848-4.608c-6.656-22.016-27.136-38.4-51.2-38.4h-0.512c-14.336 0-27.648 5.632-37.376 15.872s-15.36 23.552-15.36 37.888l2.56 214.528c0.512 25.088 9.728 49.664 26.624 68.608l143.36 161.792c4.608 5.632 7.68 12.288 7.168 19.968l-0.512 86.016c0 8.704 7.168 15.872 15.36 15.872v0c8.704 0 15.872-7.168 15.872-15.36l0.512-86.016c0-14.848-5.12-29.696-15.36-40.96l-143.36-161.792c-11.776-13.312-18.432-30.208-18.432-48.128l-2.56-214.528c0-5.632 2.048-11.264 6.144-15.36s9.728-6.656 15.36-6.656v0c11.264 0 20.992 8.704 21.504 19.968l11.264 159.744c1.024 15.872 7.68 31.232 18.432 43.008l94.72 102.912c15.872 16.896 42.496 19.456 60.416 5.12 9.728-7.68 15.872-18.944 16.896-31.232s-3.072-24.576-11.264-33.792l-81.92-90.112c-5.632-6.144-5.12-15.36 0-20.992 3.072-3.072 7.168-5.12 11.264-5.12v0c4.096 0 8.192 1.536 11.264 4.608l135.68 139.264c1.024 1.024 1.536 2.048 2.56 2.56 19.968 22.016 28.672 53.248 23.040 83.456l-29.184 160.256c-1.536 8.704 4.096 16.896 12.8 18.432s16.896-4.096 18.432-12.8l29.184-160.256c8.192-39.424-3.072-80.896-29.696-110.080M144.896 440.32l2.048 0.512c7.68 2.56 13.824 8.192 15.872 16.384 2.048 7.68 0.512 15.872-5.12 22.016l-9.216 10.752-3.584-49.664z"
        ],
        "attrs": [
          {
            "fill": "rgb(2, 75, 117)"
          }
        ],
        "isMulticolor": false,
        "isMulticolor2": false,
        "grid": 24,
        "tags": [
          "Area de conservacion"
        ],
        "colorPermutations": {
          "27511716751171": [
            {
              "f": 0
            }
          ]
        }
      },
      "attrs": [
        {
          "fill": "rgb(2, 75, 117)"
        }
      ],
      "properties": {
        "order": 80,
        "id": 15,
        "name": "Area-de-conservacion",
        "prevSize": 24,
        "code": 59648
      },
      "setIdx": 0,
      "setId": 2,
      "iconIdx": 2
    },
    {
      "icon": {
        "paths": [
          "M954.747 784.584h-876.631l136.151-245.402c23.562-42.465 64.609-71.045 112.609-78.408s95.729 7.603 130.934 41.062l60.81 57.789c23.557 22.385 55.619 33.454 87.967 30.382 32.343-3.082 61.742-20.004 80.645-46.418l1.162-1.618c8.305-11.617 21.217-18.104 35.538-17.874 14.275 0.251 26.988 7.224 34.877 19.118l112.276 169.385c5.888 8.873 17.859 11.31 26.742 5.417 8.883-5.888 11.31-17.853 5.422-26.742l-112.287-169.37c-14.781-22.308-39.583-35.912-66.345-36.388-26.788-0.512-52.029 12.237-67.599 33.997l-1.162 1.618c-12.411 17.347-31.693 28.457-52.931 30.464-21.238 2.017-42.271-5.238-57.723-19.927l-60.815-57.805c-43.919-41.743-103.47-60.411-163.359-51.226s-111.099 44.841-140.498 97.823l-152.054 274.053c-3.313 5.975-3.22 13.266 0.246 19.149 3.466 5.893 9.789 9.503 16.62 9.503h909.399c10.655 0 19.292-8.637 19.292-19.297 0-10.644-8.632-19.287-19.287-19.287z",
          "M469.432 439.316c8.412 6.543 20.536 5.018 27.069-3.395l30.674-39.47 77.855 60.503-30.669 39.465c-6.538 8.417-5.012 20.531 3.395 27.075 3.523 2.734 7.69 4.060 11.832 4.060 5.75 0 11.438-2.565 15.242-7.45l42.511-54.707c3.139-4.040 4.547-9.165 3.907-14.244-0.635-5.074-3.261-9.692-7.301-12.831l-38.927-30.249 130.268-167.644 38.922 30.254c3.523 2.734 7.69 4.060 11.827 4.060 5.755 0 11.443-2.56 15.247-7.455 6.543-8.417 5.023-20.531-3.384-27.075l-108.324-84.173c-8.417-6.538-20.536-5.012-27.069 3.4-6.538 8.412-5.018 20.531 3.395 27.064l38.927 30.254-130.294 167.649-38.927-30.254c-8.412-6.538-20.536-5.012-27.069 3.4l-42.506 54.702c-6.533 8.402-5.018 20.521 3.4 27.059z",
          "M363.75 559.683c-7.793-4.547-17.833-3.768-24.827 1.956-7.337 5.996-9.917 16.404-6.303 25.155 3.328 8.038 11.392 13.481 20.106 13.481 10.107 0 19.021-7.219 21.253-17.034 2.094-9.114-2.156-18.842-10.23-23.557v0zM363.75 559.683z",
          "M218.537 563.845c-15.078 12.836-5.632 38.339 14.147 38.339 10.496 0 19.635-7.716 21.443-18.043 3.436-19.676-20.403-33.229-35.589-20.296v0zM218.537 563.845z",
          "M274.867 518.774c-7.291 5.714-10.076 15.718-7.014 24.422 3.026 8.581 11.423 14.464 20.506 14.464 10.132 0 18.97-7.209 21.228-17.019 4.506-19.604-19-34.222-34.719-21.868v0zM274.867 518.774z",
          "M716.268 551.721c-9.093 1.807-16.21 9.498-17.311 18.703-1.070 8.837 3.476 17.7 11.366 21.898 9.032 4.808 20.623 2.468 27.085-5.453 12.667-15.498-1.51-39.050-21.14-35.149v0zM716.268 551.721z",
          "M774.241 615.946c-9.354 1.623-16.717 9.405-17.853 18.821-1.070 8.852 3.523 17.674 11.387 21.868 9.431 5.028 21.376 2.243 27.761-6.282 11.592-15.498-2.468-37.673-21.294-34.406v0zM774.241 615.946z",
          "M386.412 487.27c-7.654 5.514-10.87 15.79-7.813 24.704 3.016 8.704 11.412 14.694 20.639 14.694 9.861 0 18.642-6.881 21.074-16.425 4.956-19.42-17.787-34.575-33.9-22.973v0zM386.412 487.27z"
        ],
        "attrs": [
          {
            "fill": "rgb(6, 75, 117)"
          },
          {
            "fill": "rgb(6, 75, 117)"
          },
          {
            "fill": "rgb(6, 75, 117)"
          },
          {
            "fill": "rgb(6, 75, 117)"
          },
          {
            "fill": "rgb(6, 75, 117)"
          },
          {
            "fill": "rgb(6, 75, 117)"
          },
          {
            "fill": "rgb(6, 75, 117)"
          },
          {
            "fill": "rgb(6, 75, 117)"
          }
        ],
        "isMulticolor": false,
        "isMulticolor2": false,
        "grid": 24,
        "tags": [
          "Arena"
        ],
        "colorPermutations": {
          "27511716751171": [
            {
              "f": 1
            },
            {
              "f": 1
            },
            {
              "f": 1
            },
            {
              "f": 1
            },
            {
              "f": 1
            },
            {
              "f": 1
            },
            {
              "f": 1
            },
            {
              "f": 1
            }
          ]
        }
      },
      "attrs": [
        {
          "fill": "rgb(6, 75, 117)"
        },
        {
          "fill": "rgb(6, 75, 117)"
        },
        {
          "fill": "rgb(6, 75, 117)"
        },
        {
          "fill": "rgb(6, 75, 117)"
        },
        {
          "fill": "rgb(6, 75, 117)"
        },
        {
          "fill": "rgb(6, 75, 117)"
        },
        {
          "fill": "rgb(6, 75, 117)"
        },
        {
          "fill": "rgb(6, 75, 117)"
        }
      ],
      "properties": {
        "order": 81,
        "id": 14,
        "name": "Arena",
        "prevSize": 24,
        "code": 59651
      },
      "setIdx": 0,
      "setId": 2,
      "iconIdx": 3
    },
    {
      "icon": {
        "paths": [
          "M702.848 497.48c0 13.084-10.682 23.69-23.859 23.69s-23.859-10.606-23.859-23.69c0-13.084 10.682-23.69 23.859-23.69s23.859 10.606 23.859 23.69z",
          "M837.791 190.925c-22.83 0-43.382 9.836-57.61 25.452-14.228-15.621-34.79-25.452-57.636-25.452-42.834 0-77.696 34.586-77.696 77.117 0 10.998 8.991 19.922 20.070 19.922 11.1 0 20.070-8.924 20.070-19.922 0-20.557 16.86-37.274 37.555-37.274 19.871 0 36.168 15.365 37.448 34.765h0.138l0.133 0.010c-0.097 0.824-0.169 71.173-0.169 71.173 0 11.008 8.986 19.927 20.065 19.927 11.090 0 20.076-8.919 20.076-19.927v-68.68c0-0.026-0.005-0.046-0.005-0.067 0.041-20.526 16.881-37.207 37.555-37.207 20.716 0 37.55 16.717 37.55 37.274 0 10.998 8.986 19.922 20.070 19.922 11.095 0 20.065-8.924 20.065-19.922 0.020-42.532-34.831-77.112-77.681-77.112z",
          "M976.287 413.568c-12.503-14.587-30.735-22.932-50.002-22.932h-533.791c-60.657 0-112.84-42.834-124.078-101.842-0.23-1.213-0.543-2.401-0.855-3.584h31.908c56.98 0 103.322-45.998 103.322-102.564v-27.407c0-10.998-8.986-19.927-20.070-19.927h-60.293c-44.211 0-84.557 22.431-108.401 57.216-23.864-34.785-64.184-57.216-108.421-57.216h-60.298c-11.080 0-20.070 8.929-20.070 19.927v27.412c0 56.561 46.346 102.559 103.327 102.559h35.2c-1.132 4.332-1.72 8.832-1.72 13.435v111.959c0 86.103 32.435 168.223 91.305 231.235 52.198 55.875 120.975 92.334 195.953 104.392-10.24 30.899-9.774 65.434 3.922 97.69 2.063 4.869 6.001 8.719 10.931 10.721 2.427 0.973 8.796 2.191 15.36-0.102l182.528-76.385c14.049-5.852 25.252-16.589 31.739-29.932h0.005c75.909-9.001 146.98-43.208 201.354-97.193 50.98-50.586 84.122-114.478 95.78-184.781 0.041-0.2 0.056-0.379 0.077-0.579v-0.005l0.020 0.005c3.031-18.668-2.324-37.658-14.73-52.101zM128.558 245.366c-34.842 0-63.181-28.129-63.181-62.72v-7.485h40.218c42.23 0 79.319 29.471 88.596 70.205h-65.633zM322.427 175.16h40.223v7.485c0 34.586-28.344 62.72-63.181 62.72h-65.638c9.257-40.735 46.367-70.205 88.596-70.205zM866.729 622.848c-43.95 43.674-100.311 72.678-160.963 83.354 33.894-110.602 125.747-194.422 239.59-218.706-13.553 51.082-40.381 97.444-78.628 135.352zM659.359 725.591c-0.051 0.236-0.092 0.471-0.123 0.696-1.572 6.81-6.292 12.447-12.764 15.145l-162.202 67.871c-9.196-45.486 14.787-92.754 59.479-111.468 10.22-4.275 15.007-15.959 10.696-26.102-4.306-10.132-16.082-14.889-26.291-10.614-24.863 10.409-45.138 27.151-59.735 47.519-71.071-8.392-136.637-41.452-185.631-93.896-51.983-55.619-80.604-128.118-80.604-204.145v-111.954c0-3.61 1.403-6.973 3.937-9.482 2.565-2.555 5.96-3.948 9.574-3.948 6.482 0 12.063 4.618 13.281 11.018 14.838 77.793 83.594 134.257 163.523 134.257h533.791c7.491 0 14.572 3.246 19.451 8.924 1.756 2.048 3.123 4.285 4.106 6.656-144.589 25.375-260.096 135.598-290.488 279.521z",
          "M424.96 601.554c-27.817-11.412-52.383-28.406-73.021-50.483-13.286-14.218-24.458-30.157-33.208-47.37-4.987-9.815-17.065-13.768-26.962-8.817-9.897 4.961-13.87 16.942-8.878 26.762 10.45 20.552 23.772 39.578 39.613 56.525 24.602 26.327 53.914 46.587 87.117 60.206 2.509 1.029 5.11 1.521 7.66 1.521 7.885 0 15.36-4.634 18.56-12.314 4.239-10.173-0.635-21.827-10.88-26.030z"
        ],
        "attrs": [
          {
            "fill": "rgb(6, 75, 117)"
          },
          {
            "fill": "rgb(6, 75, 117)"
          },
          {
            "fill": "rgb(6, 75, 117)"
          },
          {
            "fill": "rgb(6, 75, 117)"
          }
        ],
        "isMulticolor": false,
        "isMulticolor2": false,
        "grid": 24,
        "tags": [
          "Ballenas"
        ],
        "colorPermutations": {
          "27511716751171": [
            {
              "f": 1
            },
            {
              "f": 1
            },
            {
              "f": 1
            },
            {
              "f": 1
            }
          ]
        }
      },
      "attrs": [
        {
          "fill": "rgb(6, 75, 117)"
        },
        {
          "fill": "rgb(6, 75, 117)"
        },
        {
          "fill": "rgb(6, 75, 117)"
        },
        {
          "fill": "rgb(6, 75, 117)"
        }
      ],
      "properties": {
        "order": 82,
        "id": 13,
        "name": "Ballenas",
        "prevSize": 24,
        "code": 59652
      },
      "setIdx": 0,
      "setId": 2,
      "iconIdx": 4
    },
    {
      "icon": {
        "paths": [
          "M442.368 272.435h-59.5c-32.404 0-61.22-15.636-79.334-39.721-18.109 24.1-46.925 39.721-79.324 39.721h-59.5c-43.75 0-79.329-35.579-79.329-79.334-10.967 0-19.835-8.863-19.835-19.835v-39.66c0-13.21 14.49-22.83 26.26-18.77 16.056-46.73 60.447-80.394 112.568-80.394h198.323c52.122 0 96.512 33.659 112.563 80.394 11.93-4.060 26.266 5.56 26.266 18.77v39.67c0 10.962-8.873 19.825-19.84 19.825 0.005 43.756-35.569 79.334-79.319 79.334zM323.369 173.266c0 32.814 26.696 59.5 59.5 59.5h59.5c21.868 0 39.665-17.797 39.665-39.665v-39.654c0-43.756-35.579-79.329-79.334-79.329h-79.329v99.149zM204.375 74.117c-43.75 0-79.334 35.574-79.334 79.329v39.66c0 21.868 17.802 39.68 39.67 39.68h59.5c32.809 0 59.494-26.691 59.494-59.5v-99.169h-79.329z",
          "M283.704 470.769c-43.75 0-79.324-35.589-79.324-79.329 0-43.756 35.574-79.334 79.324-79.334 43.756 0 79.329 35.579 79.329 79.334 0 43.74-35.574 79.329-79.329 79.329zM283.704 351.77c-21.868 0-39.665 17.807-39.665 39.67 0 21.857 17.802 39.66 39.665 39.66 21.868 0 39.67-17.802 39.67-39.66-0.005-21.868-17.802-39.67-39.67-39.67z",
          "M878.684 986.414h-118.999c-43.73 0-79.324-35.599-79.324-79.34v-376.817c0-55.276 32.456-103.096 79.324-125.43v-72.888c0-10.967 8.868-19.84 19.835-19.84h16c-9.339-23.388-33.894-39.66-55.665-39.66h-39.67c-51.517 0-99.159 14.408-99.159 118.994v307.41c0 185.421-95.073 287.575-267.74 287.575-158.566 0-287.575-128.993-287.575-287.575v-148.756c0-98.412 80.067-178.488 178.493-178.488 10.962 0 19.835 8.878 19.835 19.84s-8.868 19.83-19.835 19.83c-76.544 0-138.824 62.285-138.824 138.819v148.756c0 136.699 111.206 247.9 247.905 247.9 151.342 0 228.076-83.384 228.076-247.9v-307.405c0-106.757 45.399-158.669 138.824-158.669h39.67c46.095 0 87.235 35.267 96.988 79.334h22.011c10.962 0 19.83 8.868 19.83 19.835v72.893c46.868 22.333 79.329 70.154 79.329 125.43v376.817c0 43.735-35.599 79.334-79.329 79.334zM720.026 907.075c0 21.893 17.782 39.665 39.66 39.665h118.999c21.883 0 39.665-17.772 39.665-39.665h-198.323zM720.026 867.41h198.323v-317.327h-198.323v317.327zM721.997 510.438h194.376c-9.211-45.21-49.306-79.345-97.183-79.345-47.882 0-87.977 34.135-97.193 79.345zM799.355 391.439h39.67v-39.67h-39.67v39.67z"
        ],
        "attrs": [
          {
            "fill": "rgb(6, 75, 117)"
          },
          {
            "fill": "rgb(6, 75, 117)"
          },
          {
            "fill": "rgb(6, 75, 117)"
          }
        ],
        "isMulticolor": false,
        "isMulticolor2": false,
        "grid": 24,
        "tags": [
          "Buceo"
        ],
        "colorPermutations": {
          "27511716751171": [
            {
              "f": 1
            },
            {
              "f": 1
            },
            {
              "f": 1
            }
          ]
        }
      },
      "attrs": [
        {
          "fill": "rgb(6, 75, 117)"
        },
        {
          "fill": "rgb(6, 75, 117)"
        },
        {
          "fill": "rgb(6, 75, 117)"
        }
      ],
      "properties": {
        "order": 83,
        "id": 12,
        "name": "Buceo",
        "prevSize": 24,
        "code": 59653
      },
      "setIdx": 0,
      "setId": 2,
      "iconIdx": 5
    },
    {
      "icon": {
        "paths": [
          "M396.677 183.45l-77.548-133.555c-2.975-5.14-8.463-7.547-14.408-7.547h-155.085c-5.949 0-11.433 2.473-14.408 7.619l-77.553 133.965c-2.975 5.151-2.975 11.31 0 16.456l77.548 133.678c2.975 5.156 8.463 7.69 14.408 7.69h66.55v178.668c0 9.19 7.439 16.64 16.635 16.64s16.64-7.45 16.64-16.64v-178.662h55.26c5.944 0 11.438-2.627 14.408-7.767l77.548-134.052c2.975-5.151 2.975-11.351 0.005-16.492zM295.117 308.485h-135.885l-67.942-116.434 67.953-116.439h135.88l67.953 116.439-67.958 116.434z",
          "M563.405 333.517c-46.474-33.116-94.525-67.343-96.548-100.076-0.881-14.141 7.060-28.703 24.3-44.524 25.928-23.818 56.965-40.878 89.846-58.947 16.353-8.986 33.285-18.289 49.444-28.462 7.767-4.905 10.107-15.16 5.202-22.938-4.859-7.788-15.119-10.081-22.932-5.212-15.319 9.636-31.79 18.693-47.729 27.448-33.152 18.227-67.441 37.069-96.338 63.611-24.745 22.723-36.506 46.633-34.99 71.081 3.016 48.548 57.631 87.47 110.459 125.097 50.534 36.009 102.769 73.226 96.993 109.164-28.268 175.468-261.468 268.308-415.775 329.738-27.346 10.875-53.176 21.176-75.075 30.776-8.397 3.686-12.237 13.507-8.54 21.914 2.744 6.241 8.852 9.964 15.252 9.964 2.227 0 4.5-0.461 6.676-1.423 21.345-9.37 46.935-19.558 73.994-30.331 161.306-64.205 405.048-161.239 436.311-355.348 9.052-56.325-51.748-99.64-110.551-141.532z",
          "M937.405 436.429c-52.644-67.354-111.667-108.411-154.752-138.388-39.199-27.279-67.548-46.996-68.751-68.787-1.285-23.199 25.764-58.158 85.094-110.013 6.932-6.042 7.629-16.553 1.582-23.47-6.057-6.917-16.579-7.598-23.47-1.577-70.451 61.578-98.391 101.243-96.425 136.899 2.115 37.99 37.801 62.817 82.975 94.249 43.643 30.377 97.992 68.178 147.528 131.574 96.522 123.479-178.181 379.52-268.472 463.657-13.814 12.908-23.828 22.211-29.558 28.17-6.369 6.63-6.159 17.157 0.456 23.526 3.231 3.103 7.373 4.649 11.53 4.649 4.372 0 8.724-1.71 11.986-5.105 5.299-5.509 15.191-14.71 28.283-26.911 105.907-98.714 387.297-360.96 271.995-508.472z",
          "M625.828 708.9c-6.134-6.835-16.65-7.363-23.485-1.229l-166.339 149.704c-6.825 6.144-7.373 16.66-1.234 23.491 3.282 3.651 7.813 5.509 12.36 5.509 3.968 0 7.941-1.413 11.126-4.28l166.333-149.699c6.83-6.144 7.383-16.66 1.239-23.496z"
        ],
        "attrs": [
          {
            "fill": "rgb(6, 75, 117)"
          },
          {
            "fill": "rgb(6, 75, 117)"
          },
          {
            "fill": "rgb(6, 75, 117)"
          },
          {
            "fill": "rgb(6, 75, 117)"
          }
        ],
        "isMulticolor": false,
        "isMulticolor2": false,
        "grid": 24,
        "tags": [
          "Estado del camino"
        ],
        "colorPermutations": {
          "27511716751171": [
            {
              "f": 1
            },
            {
              "f": 1
            },
            {
              "f": 1
            },
            {
              "f": 1
            }
          ]
        }
      },
      "attrs": [
        {
          "fill": "rgb(6, 75, 117)"
        },
        {
          "fill": "rgb(6, 75, 117)"
        },
        {
          "fill": "rgb(6, 75, 117)"
        },
        {
          "fill": "rgb(6, 75, 117)"
        }
      ],
      "properties": {
        "order": 84,
        "id": 11,
        "name": "Estado-del-camino",
        "prevSize": 24,
        "code": 59654
      },
      "setIdx": 0,
      "setId": 2,
      "iconIdx": 6
    },
    {
      "icon": {
        "paths": [
          "M100.982 177.382c1.27 5.371 6.072 9.18 11.607 9.18h196.321c6.303 0 11.52-4.905 11.899-11.192l0.036-0.461c0.056-0.819 0.102-1.649 0.102-2.504 0-22.625-15.913-41.754-37.396-46.449-9.789-18.688-28.426-31.524-49.336-34.089-4.905-32.266-32.835-57.073-66.458-57.073-37.053 0-67.205 30.152-67.205 67.21 0 11.346 2.816 22.236 8.146 32.015-5.837 8.765-9.247 19.292-9.247 30.587-0.005 4.183 0.517 8.484 1.531 12.774zM264.289 141.138c1.69 4.367 5.77 7.347 10.45 7.613 9.093 0.527 16.763 6.134 20.285 13.972h-171.663c0.973-16.527 14.725-29.665 31.488-29.665 6.845 0 13.389 2.202 18.918 6.364 2.744 2.068 6.236 2.847 9.595 2.145 3.364-0.701 6.252-2.811 7.946-5.796 7.188-12.672 20.69-20.547 35.22-20.547 16.609-0.005 31.785 10.409 37.76 25.912zM167.757 58.639c21.007 0 38.559 15.012 42.516 34.857-12.713 3.338-24.192 10.511-32.753 20.582-7.086-3.205-14.751-4.864-22.671-4.864-10.153 0-19.661 2.76-27.848 7.547-1.705-4.675-2.596-9.646-2.596-14.751-0.005-23.921 19.446-43.372 43.351-43.372z",
          "M190.531 728.612h-8.673v-85.642c0-5.207-3.374-9.805-8.34-11.372-4.961-1.572-10.373 0.266-13.353 4.536l-45.527 65.039c-2.55 3.651-2.862 8.407-0.814 12.349 2.058 3.937 6.139 6.415 10.583 6.415h33.597v8.668h-11.93c-6.589 0-11.93 5.335-11.93 11.919 0 6.589 5.34 11.93 11.93 11.93h44.457c6.584 0 11.919-5.34 11.919-11.93-0-6.579-5.345-11.914-11.919-11.914zM158.003 696.079h-10.701l10.706-15.278v15.278z",
          "M228.347 477.998c-2.78-5.97-9.882-8.54-15.846-5.765-9.196 4.285-19.497 4.746-29.005 1.265-6.185-2.258-13.025 0.927-15.288 7.117-2.253 6.19 0.932 13.030 7.117 15.288 6.897 2.519 14.049 3.773 21.176 3.773 8.899 0 17.772-1.951 26.076-5.832 5.97-2.785 8.55-9.876 5.77-15.846z",
          "M421.975 563.896c8.893 0 17.761-1.956 26.071-5.832 5.975-2.79 8.556-9.887 5.77-15.857-2.785-5.975-9.887-8.54-15.852-5.755-9.185 4.275-19.482 4.731-29 1.26-6.185-2.253-13.030 0.932-15.283 7.112-2.263 6.185 0.922 13.030 7.112 15.288 6.892 2.529 14.049 3.784 21.181 3.784z",
          "M595.937 523.382c6.897 2.514 14.049 3.773 21.187 3.773 8.893 0 17.761-1.951 26.076-5.832 5.97-2.79 8.55-9.876 5.76-15.852-2.78-5.965-9.876-8.545-15.846-5.77-9.19 4.296-19.487 4.746-29 1.27-6.175-2.263-13.030 0.927-15.293 7.117-2.263 6.185 0.932 13.030 7.117 15.293z",
          "M513.183 622.372c-6.18-2.253-13.036 0.932-15.288 7.122-2.258 6.18 0.927 13.036 7.117 15.288 6.902 2.509 14.044 3.768 21.176 3.768 8.904 0 17.777-1.946 26.086-5.837 5.965-2.78 8.545-9.876 5.765-15.836-2.79-5.98-9.876-8.566-15.857-5.77-9.19 4.28-19.487 4.731-29 1.265z",
          "M264.34 657.782c6.902 2.519 14.049 3.773 21.181 3.773 8.904 0 17.772-1.951 26.081-5.827 5.97-2.79 8.55-9.887 5.77-15.846-2.79-5.98-9.887-8.545-15.857-5.77-9.185 4.285-19.487 4.736-28.995 1.265-6.175-2.253-13.025 0.927-15.283 7.112-2.273 6.2 0.916 13.036 7.101 15.293z",
          "M116.9 453.868c6.897 2.519 14.049 3.773 21.176 3.773 8.904 0 17.772-1.946 26.086-5.832 5.97-2.775 8.545-9.871 5.76-15.841s-9.882-8.54-15.846-5.76c-9.196 4.285-19.487 4.736-28.995 1.265-6.19-2.263-13.036 0.916-15.293 7.107-2.258 6.2 0.932 13.041 7.112 15.288z",
          "M576.737 456.351c-9.185 4.28-19.482 4.736-28.995 1.26-6.18-2.258-13.030 0.927-15.288 7.117s0.922 13.030 7.112 15.288c6.897 2.519 14.044 3.768 21.187 3.768 8.893 0 17.766-1.951 26.076-5.827 5.965-2.78 8.545-9.882 5.76-15.857-2.79-5.955-9.882-8.535-15.852-5.75z",
          "M257.198 824.197c8.893 0 17.756-1.946 26.076-5.842 5.975-2.775 8.55-9.871 5.765-15.846-2.785-5.965-9.882-8.535-15.846-5.755-9.196 4.275-19.487 4.731-29 1.265-6.185-2.263-13.030 0.927-15.288 7.112s0.927 13.036 7.117 15.293c6.892 2.519 14.049 3.773 21.176 3.773z",
          "M970.158 725.745c-20.716-10.414-39.767-1.638-50.401 7.214-3.82-0.983-8.95-1.976-14.679-2.253-16.901-0.819-30.484 4.997-39.245 16.809-3.564 4.803-2.555 11.592 2.248 15.155 1.951 1.444 4.209 2.135 6.456 2.135 3.318 0 6.595-1.516 8.714-4.388 4.096-5.524 10.22-7.588 16.236-8.008-4.956 6.81-10.025 16-11.75 26.68-0.942 5.914 3.077 11.474 8.991 12.426 0.579 0.092 1.162 0.133 1.731 0.133 5.233 0 9.841-3.789 10.691-9.124 1.039-6.42 4.193-12.268 7.419-16.783 5.064 26.819 4.193 54.508-2.586 81.004-5.796 1.085-11.489 2.908-16.973 5.458-5.975 2.785-8.561 9.887-5.765 15.852 2.022 4.337 6.318 6.886 10.808 6.886 1.679 0 3.4-0.364 5.038-1.121 11.346-5.299 24.069-5.857 35.82-1.567 6.175 2.263 13.030-0.916 15.293-7.117 2.248-6.185-0.937-13.030-7.122-15.293-4.808-1.751-9.728-2.954-14.689-3.64 5.734-25.498 6.636-51.871 2.647-77.65 4.296 3.446 7.946 7.060 9.733 10.353 1.966 3.615 5.683 5.658 9.533 5.658 1.746 0 3.517-0.42 5.166-1.321 5.253-2.862 7.204-9.441 4.342-14.7-5.176-9.513-16.072-18.166-25.272-24.264 4.982-1.894 11.182-2.514 17.869 0.835 5.345 2.693 11.868 0.538 14.546-4.808 2.708-5.356 0.553-11.868-4.797-14.561z",
          "M843.566 801.833c1.848-0.113 3.85-0.128 5.99-0.031 6.584 0.317 12.17-4.767 12.472-11.351 0.328-6.574-4.756-12.155-11.336-12.477-14.715-0.707-25.549 2.632-32.625 6.016-9.339-10.342-29.404-25.882-62.331-19.482-6.461 1.254-10.685 7.521-9.426 13.972 1.249 6.472 7.501 10.691 13.972 9.431 11.51-2.232 20.506-0.445 27.249 2.637-9.897 3.031-20.823 8.202-29.42 17.034-4.603 4.721-4.5 12.268 0.22 16.86 2.309 2.263 5.315 3.384 8.32 3.384 3.103 0 6.205-1.203 8.54-3.604 4.403-4.516 10.045-7.588 15.657-9.682-21.596 42.296-33.111 89.19-33.485 136.812-6.41 1.029-12.723 2.939-18.775 5.77-5.975 2.785-8.556 9.882-5.77 15.852 2.028 4.332 6.323 6.881 10.813 6.881 1.69 0 3.4-0.358 5.033-1.116 11.356-5.299 24.069-5.857 35.814-1.577 6.18 2.248 13.041-0.922 15.288-7.112 2.263-6.185-0.927-13.036-7.107-15.293-3.763-1.372-7.593-2.401-11.448-3.113 0.317-44.032 10.998-87.419 31.017-126.52 0.85 6.912 1.213 15.642 0.067 25.605-0.748 6.543 3.932 12.467 10.486 13.204 0.461 0.061 0.922 0.092 1.382 0.092 5.97 0 11.126-4.485 11.832-10.557 1.106-9.539 1.060-18.207 0.481-25.651 5.217 5.77 10.173 13.169 13.737 22.533 1.818 4.772 6.354 7.69 11.156 7.69 1.403 0 2.847-0.256 4.239-0.783 6.149-2.34 9.247-9.231 6.902-15.391-7.122-18.657-18.432-31.483-28.948-40.033z",
          "M700.329 869.898l-78.049-23.854c-3.528-1.070-7.363-0.456-10.363 1.674l-36.854 26.004c-3.697 2.611-5.601 7.076-4.915 11.54 0.676 4.46 3.814 8.166 8.105 9.549l80.22 26.025c1.208 0.394 2.452 0.579 3.692 0.579 2.693 0 5.361-0.922 7.516-2.678l34.688-28.17c3.43-2.785 5.023-7.224 4.188-11.551-0.845-4.321-4.019-7.823-8.228-9.119zM659.666 896.154l-51.395-16.676 12.626-8.904 51.052 15.596-12.283 9.984z",
          "M825.656 389.248c-7.757-4.347-16.374-8.443-25.923-12.314l6.359-29.379 22.205-7.347c3.492-1.162 6.267-3.891 7.491-7.368l9.789-27.817c2.202-6.211-1.060-13.015-7.281-15.206-6.205-2.191-13.015 1.075-15.206 7.281l-7.854 22.303-23.101 7.66c-4.019 1.326-7.025 4.669-7.91 8.801l-7.117 32.87c-13.087-4.255-27.505-8.218-43.397-11.94-1.295-0.302-7.66-1.577-9.277-1.869l-1.812-41.58 26.532-24.125 10.547 15.539c2.299 3.389 6.052 5.228 9.866 5.228 2.304 0 4.644-0.671 6.702-2.058 5.443-3.697 6.866-11.116 3.164-16.568l-17.142-25.242-11.372-42.296 84.644-29.307 2.294 60.042c0.241 6.031 4.941 10.941 10.972 11.423l61.476 4.961 23.762 17.521-1.49 74.066c-0.138 6.579 5.1 12.027 11.674 12.155 0.087 0 0.159 0.005 0.251 0.005 6.472 0 11.786-5.181 11.919-11.674l1.618-80.241c0.072-3.881-1.741-7.547-4.849-9.846l-28.59-21.074-20.936-56.632 89.457-19.22c6.436-1.382 10.552-7.706 9.165-14.147-1.372-6.446-7.711-10.557-14.147-9.175l-100.47 21.571-38.39-7.931c-2.099-0.435-4.285-0.302-6.313 0.41l-54.364 18.811-12.017-32.86c-1.382-3.784-4.588-6.61-8.509-7.521l-16.471-3.809-12.82-52.163c-1.152-4.726-5.064-8.279-9.887-8.96-4.797-0.696-9.554 1.603-12.012 5.801l-28.908 49.715-16.788 8.32c-3.098 1.531-5.381 4.337-6.246 7.695l-10.578 40.812-8.893-1.26c-1.152-0.159-2.299-0.154-3.451 0.020l-32.788 4.961c-5.627 0.855-9.866 5.555-10.132 11.228l-2.458 52.065-18.125 5.1c-5.202 1.475-8.765 6.236-8.689 11.648l0.809 58.819c-171.208-14.228-347.786-5.233-539.018 7.357-6.574 0.425-11.546 6.113-11.11 12.677 0.43 6.574 6.129 11.535 12.682 11.11 248.975-16.374 472.883-26.711 691.343 12.856 73.697 16.804 114.263 38.508 127.657 68.321 10.788 24.003 4.818 56.059-18.217 98.002-105.723 192.461-587.034 350.909-591.882 352.486-6.267 2.033-9.692 8.771-7.654 15.037 1.644 5.028 6.313 8.238 11.346 8.238 1.224 0 2.463-0.195 3.686-0.579 1.229-0.415 124.646-40.796 259.789-105.042 148.388-70.543 252.943-141.179 311.951-210.58-4.255 10.086-11.802 20.854-26.020 33.3-15.145 13.256-19.441 29.076-23.235 43.054-5.043 18.56-8.684 31.969-34.934 41.426-3.948 1.418-8.166 2.903-12.59 4.475-60.426 21.396-151.736 53.724-177.91 114.785-9.175 21.417-45.46 44.882-102.19 66.084-45.21 16.886-87.967 26.629-88.392 26.721-6.426 1.449-10.46 7.834-9.006 14.254 1.254 5.54 6.17 9.308 11.622 9.308 0.87 0 1.751-0.097 2.637-0.297 1.802-0.415 44.549-10.138 91.249-27.566 64.855-24.202 103.885-50.816 116.009-79.109 22.057-51.456 110.874-82.903 163.942-101.693 4.465-1.582 8.719-3.092 12.703-4.521 37.934-13.665 44.554-38.042 49.879-57.62 3.323-12.262 6.2-22.845 15.918-31.365 35.395-30.996 38.062-56.909 40.197-77.732 0.952-9.257 1.766-17.265 5.432-24.607 0.036-0.077 3.128-6.026 4.541-8.873 21.555-43.428 25.779-78.638 12.892-107.356-0.466-1.029-0.973-2.028-1.485-3.041 9.487 4.69 19.497 10.051 29.486 16.056 37.105 22.359 81.142 58.394 80.138 103.086-0.148 6.579 5.079 12.042 11.663 12.186 0.087 0 0.174 0 0.261 0 6.461 0 11.781-5.161 11.914-11.653 2.248-101.519-161.853-158.961-180.28-165.089zM878.812 196.782l18.176 49.172-35.697-2.877-1.925-50.314 19.446 4.019zM722.662 123.556l7.526 30.612c1.065 4.372 4.511 7.767 8.893 8.781l17.316 3.999 9.667 26.414-32.553 10.363-23.757-57.969 12.908-22.2zM686.659 163.016l3.63-1.797 15.764 38.63-27.914-3.932 8.52-32.901zM700.385 350.858c-35.133-5.678-70.39-10.143-105.866-13.553l-0.717-52.137 13.947-3.927 30.776 10.839-1.121 23.624c-0.312 6.579 4.772 12.165 11.346 12.477 0.195 0.010 0.389 0.010 0.573 0.010 6.328 0 11.602-4.977 11.904-11.361l1.531-32.492c0.251-5.258-2.98-10.056-7.951-11.802l-34.324-12.104 1.981-42.015 11.73-1.761 4.813 25.882c1.070 5.75 6.077 9.754 11.704 9.754 0.732 0 1.459-0.077 2.196-0.215 6.472-1.193 10.747-7.429 9.549-13.891l-3.901-20.925 68.49 9.646 10.839 40.325-35.446 32.241c-2.627 2.391-4.045 5.811-3.896 9.349l1.843 42.035z"
        ],
        "attrs": [
          {
            "fill": "rgb(6, 75, 117)"
          },
          {
            "fill": "rgb(6, 75, 117)"
          },
          {
            "fill": "rgb(6, 75, 117)"
          },
          {
            "fill": "rgb(6, 75, 117)"
          },
          {
            "fill": "rgb(6, 75, 117)"
          },
          {
            "fill": "rgb(6, 75, 117)"
          },
          {
            "fill": "rgb(6, 75, 117)"
          },
          {
            "fill": "rgb(6, 75, 117)"
          },
          {
            "fill": "rgb(6, 75, 117)"
          },
          {
            "fill": "rgb(6, 75, 117)"
          },
          {
            "fill": "rgb(6, 75, 117)"
          },
          {
            "fill": "rgb(6, 75, 117)"
          },
          {
            "fill": "rgb(6, 75, 117)"
          },
          {
            "fill": "rgb(6, 75, 117)"
          }
        ],
        "isMulticolor": false,
        "isMulticolor2": false,
        "grid": 24,
        "tags": [
          "Mirador"
        ],
        "colorPermutations": {
          "27511716751171": [
            {
              "f": 1
            },
            {
              "f": 1
            },
            {
              "f": 1
            },
            {
              "f": 1
            },
            {
              "f": 1
            },
            {
              "f": 1
            },
            {
              "f": 1
            },
            {
              "f": 1
            },
            {
              "f": 1
            },
            {
              "f": 1
            },
            {
              "f": 1
            },
            {
              "f": 1
            },
            {
              "f": 1
            },
            {
              "f": 1
            }
          ]
        }
      },
      "attrs": [
        {
          "fill": "rgb(6, 75, 117)"
        },
        {
          "fill": "rgb(6, 75, 117)"
        },
        {
          "fill": "rgb(6, 75, 117)"
        },
        {
          "fill": "rgb(6, 75, 117)"
        },
        {
          "fill": "rgb(6, 75, 117)"
        },
        {
          "fill": "rgb(6, 75, 117)"
        },
        {
          "fill": "rgb(6, 75, 117)"
        },
        {
          "fill": "rgb(6, 75, 117)"
        },
        {
          "fill": "rgb(6, 75, 117)"
        },
        {
          "fill": "rgb(6, 75, 117)"
        },
        {
          "fill": "rgb(6, 75, 117)"
        },
        {
          "fill": "rgb(6, 75, 117)"
        },
        {
          "fill": "rgb(6, 75, 117)"
        },
        {
          "fill": "rgb(6, 75, 117)"
        }
      ],
      "properties": {
        "order": 85,
        "id": 10,
        "name": "Mirador",
        "prevSize": 24,
        "code": 59655
      },
      "setIdx": 0,
      "setId": 2,
      "iconIdx": 7
    },
    {
      "icon": {
        "paths": [
          "M982.641 621.435c-11.218-3.794-23.383 2.222-27.182 13.435-10.26 30.305-29.307 45.020-58.235 45.020-28.032 0-53.786-20.449-64.102-50.883-3.026-8.955-11.397-14.577-20.352-14.546-0.108-0.015-0.225-0.015-0.328-0.015-0.097 0-0.189 0-0.271 0-8.975-0.031-17.367 5.606-20.393 14.561-10.317 30.428-36.060 50.883-64.092 50.883-28.037 0-53.791-20.449-64.097-50.883-3.031-8.955-11.407-14.577-20.362-14.546-0.113-0.015-0.225-0.015-0.333-0.015-0.092 0-0.174 0-0.266 0-8.97-0.031-17.362 5.606-20.393 14.561-10.301 30.428-36.055 50.883-64.092 50.883-21.873 0-42.327-12.488-55.168-32.42-0.312-0.906-0.671-1.802-1.116-2.678-40.274-79.222-39.864-153.329-17.577-211.84 0.333-0.614 0.686-1.188 0.963-1.843 0.082-0.179 8.269-18.852 24.054-33.823 18.734-17.761 39.311-22.349 62.945-14.044 21.484 7.557 27.525 18.826 30.418 24.233 6.948 12.938 16.492 14.756 23.27 13.972 6.999-0.788 15.503-5.443 18.734-16.108 7.685-23.613 10.132-66.657-18.452-98.022 40.228-6.339 85.238 3.907 126.822 44.303l0.374 0.348c3.21 2.985 14.822 12.36 29.312 7.793 12.913-4.060 20.081-17.234 17.833-32.778l-0.164-1.116-0.282-1.085c-0.645-2.54-16.389-62.838-66.821-115.825-46.828-49.188-133.089-101.059-278.072-68.828-71.009 15.78-133.012 52.163-184.294 108.155-40.397 44.088-73.559 100.557-100.239 167.148-50.565 126.193-51.517 230.077-50.468 233.18 16.189 47.811 51.287 74.143 98.842 74.143 33.055 0 63.892-16.307 84.767-42.967 20.874 26.66 51.722 42.967 84.772 42.967 33.060 0 63.892-16.307 84.772-42.967 20.879 26.66 51.722 42.967 84.772 42.967 33.055 0 63.892-16.307 84.767-42.967 20.879 26.66 51.722 42.967 84.782 42.967 33.050 0 63.892-16.307 84.767-42.967 20.869 26.66 51.717 42.967 84.767 42.967 47.555 0 82.662-26.337 98.847-74.143 3.799-11.218-2.212-23.373-13.425-27.177zM602.906 349.988c-4.859-2.591-10.307-5.033-16.425-7.183-10.025-3.523-19.983-5.576-29.773-6.185 6.461-4.669 13.358-8.975 20.639-12.81 12.646 6.185 21.1 14.817 25.559 26.179zM388.608 679.89c-28.027 0-53.786-20.449-64.092-50.883-3.026-8.955-11.402-14.577-20.362-14.546-0.113-0.015-0.225-0.015-0.333-0.015-0.087 0-0.179 0-0.271 0-8.97-0.031-17.357 5.606-20.393 14.561-10.301 30.428-36.060 50.883-64.092 50.883-27.94 0-46.638-13.783-57.129-42.025 0.43-5.868 8.125-103.086 48.681-206.822 54.738-139.986 140.16-223.79 253.906-249.062 99.999-22.226 179.584-3.604 236.554 55.332 15.887 16.43 27.837 33.93 36.603 49.531-65.444-36.716-142.505-31.872-207.734 16.205-37.335 27.515-66.284 66.017-83.953 110.802-0.102 0.23-0.164 0.389-0.195 0.445-0.097 0.225-0.159 0.456-0.246 0.666-4.808 12.355-8.812 25.149-11.843 38.349-13.542 58.988-7.741 121.252 16.66 181.729-11.5 27.085-35.635 44.851-61.763 44.851z",
          "M884.029 782.203c-11.213-3.794-23.388 2.222-27.182 13.435-10.255 30.295-29.312 45.025-58.235 45.025-28.032 0-53.78-20.444-64.092-50.883-3.036-8.95-11.412-14.577-20.372-14.546-0.108 0-0.205-0.015-0.307-0.015-0.102 0.015-0.195 0.015-0.297 0.015-8.965-0.046-17.347 5.586-20.378 14.546-10.307 30.438-36.060 50.883-64.092 50.883-28.037 0-53.791-20.444-64.092-50.883-3.041-8.95-11.412-14.577-20.378-14.546-0.102 0-0.2-0.015-0.302-0.015-0.102 0.015-0.2 0.015-0.302 0.015-8.97-0.046-17.347 5.586-20.378 14.546-10.307 30.438-36.060 50.883-64.092 50.883-28.027 0-53.786-20.444-64.092-50.883-3.031-8.96-11.412-14.577-20.372-14.546-0.102 0-0.205-0.015-0.302-0.015-0.097 0.015-0.205 0.015-0.302 0.015-8.96-0.046-17.341 5.586-20.378 14.546-10.307 30.438-36.060 50.883-64.092 50.883-28.027 0-53.791-20.444-64.097-50.883-3.031-8.96-11.407-14.577-20.372-14.546-0.102 0-0.2-0.015-0.307-0.015-0.102 0.015-0.2 0.015-0.292 0.015-8.97-0.046-17.341 5.586-20.378 14.546-10.307 30.438-36.060 50.883-64.092 50.883-28.928 0-47.974-14.73-58.235-45.025-3.799-11.213-15.964-17.213-27.182-13.435-11.213 3.804-17.229 15.974-13.435 27.197 16.189 47.811 51.287 74.143 98.836 74.143 33.055 0 63.892-16.317 84.772-42.982 20.874 26.665 51.722 42.982 84.772 42.982s63.892-16.317 84.772-42.982c20.874 26.665 51.717 42.982 84.772 42.982 33.050 0 63.892-16.317 84.772-42.982 20.869 26.665 51.717 42.982 84.772 42.982 33.050 0 63.892-16.317 84.767-42.982 20.874 26.665 51.717 42.982 84.772 42.982 47.544 0 82.652-26.337 98.842-74.143 3.804-11.218-2.202-23.388-13.42-27.197z"
        ],
        "attrs": [
          {
            "fill": "rgb(6, 75, 117)"
          },
          {
            "fill": "rgb(6, 75, 117)"
          }
        ],
        "isMulticolor": false,
        "isMulticolor2": false,
        "grid": 24,
        "tags": [
          "Oleaje"
        ],
        "colorPermutations": {
          "27511716751171": [
            {
              "f": 1
            },
            {
              "f": 1
            }
          ]
        }
      },
      "attrs": [
        {
          "fill": "rgb(6, 75, 117)"
        },
        {
          "fill": "rgb(6, 75, 117)"
        }
      ],
      "properties": {
        "order": 86,
        "id": 9,
        "name": "Oleaje",
        "prevSize": 24,
        "code": 59656
      },
      "setIdx": 0,
      "setId": 2,
      "iconIdx": 8
    },
    {
      "icon": {
        "paths": [
          "M680.253 946.616l-22.282-14.848c-47.616-31.744-103.040-48.532-160.261-48.532h-274.79c92.093-46.362 182.508-133.437 269.701-260.342 7.429-10.813 14.484-21.509 21.35-32.123 0.425-0.353 0.937-0.512 1.326-0.901 1.992-1.971 3.072-4.408 3.717-6.953 54.006-84.664 89.661-159.503 101.504-185.533 88.054 45.722 236.959 121.329 238.807 122.25 2.181 1.091 4.526 1.638 6.886 1.638 2.77 0 5.519-0.748 7.946-2.248 4.516-2.76 7.26-7.67 7.26-12.948 0-62.321-43.453-138.204-97.224-170.25h130.924c8.392 0 15.201-6.815 15.201-15.201 0-58.696-47.734-106.445-106.429-106.445h-58.921l108.872-62.858c7.276-4.204 9.754-13.507 5.565-20.777-29.343-50.816-94.592-68.316-145.403-38.953l-122.998 71.014v-85.284c0-8.392-6.81-15.206-15.201-15.206-57.554 0-104.596 45.911-106.399 103.045l-135.291-73.574c-50.836-29.343-116.040-11.858-145.388 38.953-4.204 7.291-1.71 16.573 5.56 20.777l108.887 62.858h-58.931c-56.709 0-106.445 49.741-106.445 106.445 0 8.387 6.815 15.201 15.217 15.201h130.893c-53.755 32.031-97.224 107.935-97.224 170.25 0 5.151 2.611 9.943 6.948 12.754 4.357 2.806 9.795 3.231 14.5 1.116l281.288-126.177c-84.091 202.435-448.189 367.427-452.035 369.147-5.484 2.442-9.006 7.869-9.006 13.875v182.482c0 8.402 6.815 15.206 15.206 15.206h608.246c6.692 0 12.605-4.388 14.546-10.793 1.946-6.42-0.553-13.338-6.124-17.065v0zM559.278 452.623l-35.651-17.838c9.866-18.263 17.91-36.925 23.608-55.946l16.394-4.076 27.52 13.757c-6.129 13.194-16.952 35.768-31.872 64.102v0zM239.642 481.454c9.236-46.95 42.634-98.043 81.096-120.233l43.965-25.4h63.826c8.392 0 15.201-6.815 15.201-15.201 0-8.397-6.81-15.212-15.201-15.212h-238.479c7.48-31.145 36.756-60.815 74.179-60.815h112.374l63.79 29.030c2.053 0.932 4.173 1.377 6.282 1.377 5.786 0 11.305-3.297 13.86-8.904 3.487-7.649 0.108-16.655-7.542-20.142l-66.115-30.106-142.904-82.509c23.45-26.465 63.176-33.756 95.268-15.222l158.049 85.929c4.695 2.555 10.429 2.463 15.037-0.287 4.613-2.739 7.434-7.69 7.434-13.061v-22.144c0-36.726 26.168-67.436 60.831-74.491v94.868c0 5.432 2.883 10.46 7.598 13.169 4.716 2.703 10.491 2.719 15.212 0l145.797-84.183c31.79-18.355 71.47-11.064 94.92 15.416l-142.899 82.514-66.125 30.106c-7.619 3.487-11.018 12.493-7.532 20.142 2.57 5.606 8.090 8.904 13.844 8.904 2.12 0 4.265-0.445 6.298-1.377l63.811-29.030h112.369c36.71 0 67.436 26.163 74.496 60.815h-241.761c-8.402 0-15.217 6.815-15.217 15.212 0 8.387 6.815 15.201 15.217 15.201h66.785l43.986 25.4c38.021 21.949 71.081 72.12 80.768 118.6-60.431-30.725-213.074-108.518-261.432-134.584-13.281-7.153-29.184-7.27-41.82-0.696l-305.265 136.914zM507.971 460.989l36.859 18.432c-12.544 22.789-27.213 48.061-43.822 74.634l-36.383-36.372c16.102-18.299 30.71-37.233 43.346-56.694v0zM443.986 540.058l40.259 40.259c-15.503 23.644-32.492 47.908-50.703 71.967l-46.945-58.706c20.076-17.009 39.404-34.903 57.39-53.519v0zM363.049 612.854l51.308 64.108c-18.145 22.636-37.437 44.774-57.769 65.772l-64.676-77.583c23.762-16.189 47.749-33.695 71.137-52.296v0zM266.429 682.045l68.475 82.166c-26.813 25.585-55.209 48.86-85.069 68.301l-72.55-96.748c27.156-15.191 57.58-33.224 89.144-53.719v0zM78.792 786.555c13.056-6.083 38.717-18.437 71.542-36.019l73.38 97.843c-27.607 15.37-56.284 27.412-85.949 34.857h-58.972v-96.681zM78.792 944.051v-30.403h418.924c42.716 0 84.311 10.46 121.677 30.403h-540.6zM78.792 944.051z",
          "M839.091 670.356c0-50.324-40.919-91.238-91.238-91.238-50.314 0-91.228 40.914-91.228 91.238s40.914 91.228 91.228 91.228c50.319 0 91.238-40.904 91.238-91.228v0zM747.848 731.182c-33.541 0-60.831-27.29-60.831-60.826s27.29-60.82 60.831-60.82c33.546 0 60.815 27.284 60.815 60.82s-27.269 60.826-60.815 60.826v0zM747.848 731.182z",
          "M945.521 837.622h-15.749c-3.692-25.759-25.917-45.624-52.664-45.624-26.762 0-48.973 19.866-52.675 45.624h-46.172c-8.397 0-15.212 6.82-15.212 15.206 0 8.392 6.815 15.206 15.212 15.206h60.831c8.392 0 15.206-6.815 15.206-15.206v-7.593c0-12.585 10.225-22.81 22.81-22.81 12.575 0 22.799 10.225 22.799 22.81v7.593c0 8.392 6.82 15.206 15.212 15.206h30.403c8.407 0 15.222-6.815 15.222-15.206 0-8.387-6.82-15.206-15.222-15.206v0zM945.521 837.622z",
          "M717.445 837.622h-15.206c-8.407 0-15.222 6.82-15.222 15.206 0 8.392 6.815 15.206 15.222 15.206h15.206c8.387 0 15.201-6.815 15.201-15.206 0-8.387-6.815-15.206-15.201-15.206v0zM717.445 837.622z",
          "M839.091 898.442h-15.206c-8.402 0-15.222 6.815-15.222 15.206 0 8.402 6.82 15.217 15.222 15.217h15.206c8.392 0 15.206-6.815 15.206-15.217-0.005-8.392-6.82-15.206-15.206-15.206v0zM839.091 898.442z",
          "M565.381 791.997h60.826c8.402 0 15.201-6.799 15.201-15.206 0-8.387-6.799-15.206-15.201-15.206h-45.614c0-25.144-20.475-45.609-45.619-45.609-25.16 0-45.624 20.465-45.624 45.609v15.206c0 8.407 6.815 15.206 15.206 15.206s15.206-6.799 15.206-15.206v-15.206c0-8.371 6.825-15.201 15.212-15.201 8.381 0 15.206 6.83 15.206 15.201v15.206c-0.005 8.402 6.81 15.206 15.201 15.206v0zM565.381 791.997z"
        ],
        "attrs": [
          {
            "fill": "rgb(2, 75, 117)"
          },
          {
            "fill": "rgb(2, 75, 117)"
          },
          {
            "fill": "rgb(2, 75, 117)"
          },
          {
            "fill": "rgb(2, 75, 117)"
          },
          {
            "fill": "rgb(2, 75, 117)"
          },
          {
            "fill": "rgb(2, 75, 117)"
          }
        ],
        "isMulticolor": false,
        "isMulticolor2": false,
        "grid": 24,
        "tags": [
          "Playa virgen"
        ],
        "colorPermutations": {
          "27511716751171": [
            {
              "f": 0
            },
            {
              "f": 0
            },
            {
              "f": 0
            },
            {
              "f": 0
            },
            {
              "f": 0
            },
            {
              "f": 0
            }
          ]
        }
      },
      "attrs": [
        {
          "fill": "rgb(2, 75, 117)"
        },
        {
          "fill": "rgb(2, 75, 117)"
        },
        {
          "fill": "rgb(2, 75, 117)"
        },
        {
          "fill": "rgb(2, 75, 117)"
        },
        {
          "fill": "rgb(2, 75, 117)"
        },
        {
          "fill": "rgb(2, 75, 117)"
        }
      ],
      "properties": {
        "order": 88,
        "id": 7,
        "name": "Playa-virgen",
        "prevSize": 24,
        "code": 59658
      },
      "setIdx": 0,
      "setId": 2,
      "iconIdx": 9
    },
    {
      "icon": {
        "paths": [
          "M790.508 586.368c-45.025 0-81.674 36.649-81.674 81.69s36.634 81.679 81.674 81.679c45.036 0 81.695-36.639 81.695-81.679-0.005-45.036-36.659-81.69-81.695-81.69zM790.508 717.071c-27.023 0-48.998-21.996-48.998-49.009 0-27.023 21.975-49.014 48.998-49.014s49.014 21.99 49.014 49.014c0.005 27.013-21.985 49.009-49.014 49.009z",
          "M235.085 586.368c-45.041 0-81.684 36.649-81.684 81.69s36.644 81.679 81.684 81.679c45.030 0 81.684-36.639 81.684-81.679s-36.654-81.69-81.684-81.69zM235.085 717.071c-27.023 0-49.009-21.996-49.009-49.009 0-27.023 21.985-49.014 49.009-49.014s48.998 21.99 48.998 49.014c-0 27.013-21.98 49.009-48.998 49.009z",
          "M986.552 586.368v-98.012c0-7.040-4.495-13.276-11.177-15.503l-92.18-30.725c-34.719-58.793-82.447-114.749-187.889-133.222-0.195-0.031-0.399-0.067-0.584-0.097-194.724-26.931-340.936 17.009-434.806 130.606-108.529 1.567-220.872 35.789-220.872 97.946v49.004c-9.011 0-16.333 7.327-16.333 16.343v65.341c0 9.021 7.322 16.338 16.333 16.338h65.341c9.021 0 16.338-7.322 16.338-16.338 0-63.058 51.302-114.355 114.355-114.355 63.048 0 114.345 51.302 114.345 114.355 0 9.021 7.322 16.338 16.338 16.338h294.047c9.021 0 16.343-7.322 16.343-16.338 0-63.058 51.302-114.355 114.35-114.355 63.058 0 114.345 51.302 114.345 114.355 0 9.021 7.327 16.338 16.343 16.338h65.341c9.021 0 16.333-7.322 16.333-16.338v-65.341c0.026-9.011-7.296-16.338-16.312-16.338zM774.979 371.656c28.375 17.388 49.505 40.366 67.86 67.692h-68.506l0.645-67.692zM578.14 333.798c34.949-0.471 72.11 1.864 111.826 7.357 19.671 3.456 36.946 8.371 52.506 14.484l-0.799 83.722h-163.528v-105.564zM545.469 335.186v104.177h-241.418c60.559-62.474 140.411-96.978 241.418-104.177zM970.204 651.72h-33.572c-8.146-73.416-70.569-130.688-146.125-130.688s-137.979 57.277-146.125 130.688h-263.178c-8.151-73.416-70.569-130.688-146.125-130.688-75.566 0-137.979 57.277-146.125 130.688h-33.567v-32.676c9.011 0 16.328-7.316 16.328-16.328v-49.014h16.333c9.011 0 16.333-7.316 16.333-16.333 0-9.006-7.322-16.333-16.333-16.333h-8.463c22.108-23.992 89.723-48.998 188.165-48.998h601.779l84.342 28.114v20.884h-16.328c-9.021 0-16.333 7.332-16.333 16.333 0 9.021 7.316 16.333 16.333 16.333h16.328v49.014c0 9.016 7.322 16.328 16.328 16.328v32.676z"
        ],
        "attrs": [
          {
            "fill": "rgb(6, 75, 117)"
          },
          {
            "fill": "rgb(6, 75, 117)"
          },
          {
            "fill": "rgb(6, 75, 117)"
          }
        ],
        "isMulticolor": false,
        "isMulticolor2": false,
        "grid": 24,
        "tags": [
          "Ruta de acceso"
        ],
        "colorPermutations": {
          "27511716751171": [
            {
              "f": 1
            },
            {
              "f": 1
            },
            {
              "f": 1
            }
          ]
        }
      },
      "attrs": [
        {
          "fill": "rgb(6, 75, 117)"
        },
        {
          "fill": "rgb(6, 75, 117)"
        },
        {
          "fill": "rgb(6, 75, 117)"
        }
      ],
      "properties": {
        "order": 89,
        "id": 6,
        "name": "Ruta-de-acceso",
        "prevSize": 24,
        "code": 59659
      },
      "setIdx": 0,
      "setId": 2,
      "iconIdx": 10
    },
    {
      "icon": {
        "paths": [
          "M762.040 597.852c18.13-21.064 28.928-47.017 31.432-74.132 18.401-6.328 31.677-23.772 31.677-44.283v-24.407c0-25.836-21.018-46.853-46.858-46.853h-1.111c-7.726-20.941-20.659-39.752-37.775-54.487-24.003-20.649-54.661-32.026-86.313-32.026h-381.798c-31.662 0-62.316 11.377-86.318 32.026-17.126 14.735-30.044 33.546-37.775 54.487h-2.719c-25.846 0-46.858 21.018-46.858 46.853v24.407c0 21.135 14.075 39.035 33.341 44.851 2.601 26.916 13.363 52.649 31.37 73.569 25.155 29.235 61.716 46.003 100.291 46.003h104.325l55.373 55.373c10.644 10.644 24.801 16.507 39.859 16.507 15.053 0 29.215-5.862 39.869-16.507l55.368-55.373h104.346c38.564-0.010 75.116-16.773 100.275-46.008zM793.528 455.025v24.402c0 2.545-0.63 4.946-1.741 7.060l-6.799-45.138c5.053 2.488 8.54 7.675 8.54 13.676zM132.265 488.54c-1.91-2.55-3.052-5.693-3.052-9.114v-24.402c0-6.661 4.296-12.329 10.271-14.397l-7.219 47.913zM479.693 676.874c-4.675 4.68-10.895 7.255-17.51 7.255s-12.826-2.575-17.505-7.255l-40.852-40.852c20.48-9.59 36.577-27.407 43.638-50.176l10.655-34.345c0.558-1.802 2.196-3 4.070-3 1.889 0 3.517 1.203 4.076 3l10.655 34.345c7.060 22.769 23.153 40.586 43.633 50.176l-40.858 40.852zM555.638 612.244c-22.4 0-41.912-14.372-48.538-35.763l-10.655-34.335c-4.685-15.104-18.458-25.252-34.268-25.252s-29.578 10.148-34.263 25.252l-10.655 34.335c-6.636 21.396-26.138 35.763-48.538 35.763h-106.107c-29.358 0-57.18-12.759-76.329-35.011-19.149-22.257-27.628-51.671-23.25-80.701l8.668-57.569c7.491-49.659 49.362-85.699 99.589-85.699h381.798c50.212 0 92.088 36.045 99.574 85.699l8.678 57.574c4.372 29.025-4.116 58.445-23.265 80.696-19.139 22.252-46.971 35.011-76.329 35.011h-106.112z",
          "M359.475 377.114h-85.396c-46.188 0-83.763 37.571-83.763 83.758v60.984c0 37.914 30.838 68.762 68.762 68.762h78.167c30.331 0 57.477-20.337 65.992-49.444l22.246-75.981c6.129-20.982 2.135-43.049-10.967-60.544-13.112-17.5-33.167-27.535-55.040-27.535zM395.131 456.31l-22.231 75.976c-4.613 15.729-19.267 26.721-35.661 26.721h-78.162c-20.48 0-37.156-16.666-37.156-37.156v-60.979c0-28.759 23.398-52.157 52.157-52.157h85.396c11.822 0 22.651 5.422 29.742 14.879 7.081 9.457 9.236 21.376 5.914 32.717z",
          "M734.054 521.856v-60.984c0-46.188-37.576-83.758-83.768-83.758h-85.396c-21.868 0-41.923 10.030-55.040 27.52-13.112 17.5-17.096 39.567-10.962 60.549l22.241 75.986c8.515 29.112 35.656 49.444 65.987 49.444h78.172c37.924 0 68.767-30.843 68.767-68.756zM551.47 532.285l-22.241-75.976c-3.318-11.341-1.162-23.26 5.929-32.717 7.081-9.452 17.91-14.874 29.732-14.874h85.412c28.754 0 52.152 23.398 52.152 52.157v60.979c0 20.49-16.666 37.156-37.156 37.156h-78.167c-16.394 0-31.058-10.998-35.661-26.726z",
          "M915.185 34.724h-44.365c-8.724 0-15.8 7.076-15.8 15.8v783.043c0 37.156-30.228 67.379-67.374 67.379-37.171 0-67.384-30.223-67.384-67.379v-35.825c25.989-8.448 48.922-25.252 64.804-48.404 4.946-7.188 3.123-17.024-4.081-21.965-7.199-4.936-17.029-3.123-21.98 4.081-17.551 25.574-46.525 40.832-77.517 40.832-30.981 0-59.965-15.252-77.527-40.832-4.941-7.188-14.771-9.016-21.96-4.081-7.204 4.941-9.027 14.776-4.096 21.965 16.22 23.624 39.731 40.637 66.376 48.911v35.318c0 79.043 64.302 143.35 143.345 143.35s143.35-64.307 143.35-143.35v-783.043c0.010-8.724-7.066-15.8-15.79-15.8zM899.379 833.567c0 61.609-50.13 111.734-111.734 111.734-61.624 0-111.749-50.125-111.749-111.734v-27.453h12.744v27.453c0 54.579 44.411 98.99 99.005 98.99 54.569 0 98.975-44.411 98.975-98.99v-767.232h12.759v767.232z"
        ],
        "attrs": [
          {
            "fill": "rgb(6, 75, 117)"
          },
          {
            "fill": "rgb(6, 75, 117)"
          },
          {
            "fill": "rgb(6, 75, 117)"
          },
          {
            "fill": "rgb(6, 75, 117)"
          }
        ],
        "isMulticolor": false,
        "isMulticolor2": false,
        "grid": 24,
        "tags": [
          "Snorkeling"
        ],
        "colorPermutations": {
          "27511716751171": [
            {
              "f": 1
            },
            {
              "f": 1
            },
            {
              "f": 1
            },
            {
              "f": 1
            }
          ]
        }
      },
      "attrs": [
        {
          "fill": "rgb(6, 75, 117)"
        },
        {
          "fill": "rgb(6, 75, 117)"
        },
        {
          "fill": "rgb(6, 75, 117)"
        },
        {
          "fill": "rgb(6, 75, 117)"
        }
      ],
      "properties": {
        "order": 90,
        "id": 5,
        "name": "Snorkeling",
        "prevSize": 24,
        "code": 59660
      },
      "setIdx": 0,
      "setId": 2,
      "iconIdx": 11
    },
    {
      "icon": {
        "paths": [
          "M429.348 424.223c-23.788-0.492-46.326-14.397-67.005-40.97-26.476-34.033-56.192-52.019-88.31-52.71-24.233-0.635-45.676 8.643-62.341 19.558-2.115 13.594-3.804 27.238-5.13 40.893 11.407-12.401 36.357-35.799 65.531-35.799 0.425 0 0.86 0 1.29 0 22.671 0 44.631 12.754 65.316 39.332 26.557 34.12 56.909 50.888 90.235 50.888 0.594 0 1.172 0 1.766 0 28.841 0 53.98-11.796 71.951-23.649-0.594-10.097-1.388-20.209-2.371-30.316-13.046 12.175-40.166 33.275-70.932 32.773z",
          "M673.459 472.581c0 3.2 0.251 5.396 0.323 6.083l29.839-1.92c0-1.802-0.061-3.548-0.179-5.243 0.159-4.27 1.203-11.653 6.108-17.311 5.197-5.985 14.111-9.231 26.476-9.636l-0.983-29.942c-20.936 0.686-37.038 7.322-47.908 19.712-15.043-14.787-37.018-19.661-51.277-19.722l-0.118 29.957c3.702 0.020 34.857 0.973 37.719 28.022z",
          "M810.409 579.103c0 3.195 0.251 5.391 0.328 6.083l29.834-1.92c0-1.833-0.061-3.635-0.179-5.386 0.169-4.188 1.208-11.402 5.98-17.004 5.176-6.093 14.131-9.395 26.614-9.805l-0.973-29.942c-20.936 0.691-37.048 7.322-47.928 19.722-15.027-14.797-37.002-19.676-51.272-19.727l-0.195 29.947c6.052 0.092 35.036 1.894 37.791 28.032z",
          "M327.962 627.809h27.464v47.073h-27.464v-47.073z",
          "M728.566 867.092v0c4.741-19 7.153-38.554 7.153-58.363 0-119.281-89.349-221.051-205.962-237.86-0.978 10.066-2.079 19.988-3.292 29.783 101.576 15.135 179.308 103.987 179.308 208.077 0 19.901-2.796 39.475-8.248 58.363h-233.446c14.254-39.654 46.935-141.338 62.397-266.44 1.208-9.795 2.309-19.722 3.292-29.783 0.128-1.275 0.271-2.54 0.379-3.814 22.036-233.948-35.727-417.976-167.040-533.268l-9.882-8.392-9.876 8.812c-131.323 115.308-188.861 298.844-166.4 532.797 13.46 140.283 51.046 256.942 66.657 300.083h-109.798v29.414h762.926v-29.414h-168.166zM355.425 867.087v-164.746h-27.464v164.751h-52.444c-15.703-37.996-90.127-257.848-68.956-476.093 1.311-13.655 3.021-27.305 5.13-40.899 16.404-105.641 57.651-208.195 141.527-286.572 94.802 88.576 135.306 208.026 147.057 327.926 0.988 10.112 1.777 20.224 2.371 30.316 12.278 207.739-55.562 409.114-70.451 445.322h-76.769z",
          "M267.172 955.346h392.253v31.375h-392.253v-31.375z",
          "M702.572 955.346h90.22v31.375h-90.22v-31.375z"
        ],
        "attrs": [
          {
            "fill": "rgb(6, 75, 117)"
          },
          {
            "fill": "rgb(6, 75, 117)"
          },
          {
            "fill": "rgb(6, 75, 117)"
          },
          {
            "fill": "rgb(6, 75, 117)"
          },
          {
            "fill": "rgb(6, 75, 117)"
          },
          {
            "fill": "rgb(6, 75, 117)"
          },
          {
            "fill": "rgb(6, 75, 117)"
          }
        ],
        "isMulticolor": false,
        "isMulticolor2": false,
        "grid": 24,
        "tags": [
          "Surf"
        ],
        "colorPermutations": {
          "27511716751171": [
            {
              "f": 1
            },
            {
              "f": 1
            },
            {
              "f": 1
            },
            {
              "f": 1
            },
            {
              "f": 1
            },
            {
              "f": 1
            },
            {
              "f": 1
            }
          ]
        }
      },
      "attrs": [
        {
          "fill": "rgb(6, 75, 117)"
        },
        {
          "fill": "rgb(6, 75, 117)"
        },
        {
          "fill": "rgb(6, 75, 117)"
        },
        {
          "fill": "rgb(6, 75, 117)"
        },
        {
          "fill": "rgb(6, 75, 117)"
        },
        {
          "fill": "rgb(6, 75, 117)"
        },
        {
          "fill": "rgb(6, 75, 117)"
        }
      ],
      "properties": {
        "order": 91,
        "id": 4,
        "name": "Surf",
        "prevSize": 24,
        "code": 59661
      },
      "setIdx": 0,
      "setId": 2,
      "iconIdx": 12
    },
    {
      "icon": {
        "paths": [
          "M810.020 392.576c-2.831 0-5.668 0.082-8.484 0.225-36.465-77.804-102.692-138.998-183.941-168.781v-79.165c0-61.87-50.34-112.205-112.21-112.205s-112.21 50.335-112.21 112.205v79.171c-81.254 29.788-147.476 90.982-183.936 168.791-2.821-0.154-5.658-0.236-8.484-0.236-87.716 0-159.078 71.363-159.078 159.073 0 10.204 8.269 18.478 18.468 18.478h120.724c8.479 70.764 39.66 134.651 86.021 184.151-16.333 27.873-23.869 60.355-21.32 92.897 2.939 37.714 19.313 73.242 46.1 100.029 3.604 3.615 8.33 5.412 13.061 5.412s9.467-1.797 13.066-5.412l100.987-100.987c27.597 7.583 56.627 11.663 86.6 11.663 31.053 0 61.112-4.357 89.59-12.483l101.806 101.801c3.604 3.615 8.335 5.412 13.061 5.412 4.746 0 9.462-1.797 13.061-5.412 26.793-26.788 43.177-62.316 46.116-100.035 2.621-33.51-5.473-66.944-22.84-95.36 45.107-49.152 75.392-112.092 83.722-181.678h120.714c10.214 0 18.488-8.274 18.488-18.478-0.026-87.711-71.383-159.078-159.084-159.078zM178.529 531.031c0 0.722 0.020 1.428 0.026 2.145h-98.529c8.627-56.632 56.3-100.598 114.606-103.485-10.435 31.918-16.102 65.981-16.102 101.34zM430.126 144.855c0-41.498 33.761-75.259 75.254-75.259 41.503 0 75.264 33.761 75.264 75.259v68.081c-24.172-5.719-49.377-8.755-75.264-8.755-25.897 0-51.087 3.036-75.254 8.755v-68.081zM259.789 684.897c-28.063-44.626-44.314-97.382-44.314-153.866 0-57.943 17.096-111.959 46.49-157.297l41.011 41.006c3.61 3.604 8.335 5.412 13.066 5.412 4.721 0 9.457-1.807 13.066-5.412 7.214-7.214 7.214-18.913 0-26.132l-44.841-44.841c53.217-62.74 132.593-102.646 221.117-102.646 88.53 0 167.9 39.9 221.123 102.646l-77.732 77.727-124.908-72.12v-20.803c0-10.204-8.274-18.473-18.483-18.473-10.204 0-18.473 8.274-18.473 18.473v20.803l-138.854 80.159c-5.714 3.308-9.236 9.395-9.236 16v160.317l-79.032 79.048zM305.705 907.039c-27.197-36.813-31.447-85.581-11.121-126.428 25.426 21.509 54.164 39.209 85.335 52.219l-74.214 74.209zM488.781 820.444c-83.22-4.716-157.179-44.692-207.094-105.206l76.728-76.728 130.36 75.264v106.67zM375.772 605.86v-149.663l129.608-74.829 129.613 74.834v149.658l-129.613 74.834-129.608-74.834zM525.727 820.214v-108.605l125.43-72.417 77.076 77.061c-49.167 59.044-121.277 98.299-202.506 103.962zM708.879 907.039l-75.351-75.336c31.217-13.353 59.94-31.437 85.284-53.33 21.632 41.293 17.746 91.177-9.933 128.666zM750.254 686.044l-78.316-78.321v-157.138l76.851-76.851c29.394 45.338 46.495 99.354 46.495 157.297 0 56.97-16.517 110.147-45.030 155.013zM832.21 533.176c0-0.717 0.031-1.423 0.031-2.145 0-35.359-5.668-69.422-16.113-101.34 58.307 2.888 105.984 46.858 114.611 103.485h-98.529z",
          "M615.235 472.284c-10.209 0-18.473 8.269-18.473 18.473v3.748c0 10.204 8.264 18.478 18.473 18.478 10.204 0 18.478-8.274 18.478-18.478v-3.748c0-10.204-8.274-18.473-18.478-18.473z"
        ],
        "attrs": [
          {
            "fill": "rgb(6, 75, 117)"
          },
          {
            "fill": "rgb(6, 75, 117)"
          }
        ],
        "isMulticolor": false,
        "isMulticolor2": false,
        "grid": 24,
        "tags": [
          "Tortuga"
        ],
        "colorPermutations": {
          "27511716751171": [
            {
              "f": 1
            },
            {
              "f": 1
            }
          ]
        }
      },
      "attrs": [
        {
          "fill": "rgb(6, 75, 117)"
        },
        {
          "fill": "rgb(6, 75, 117)"
        }
      ],
      "properties": {
        "order": 93,
        "id": 3,
        "name": "Tortuga",
        "prevSize": 24,
        "code": 59662
      },
      "setIdx": 0,
      "setId": 2,
      "iconIdx": 13
    },
    {
      "icon": {
        "paths": [
          "M986.803 340.762c-18.918-24.284-41.943-44.759-68.419-60.851-101.176-61.512-228.705-43.679-309.632 35.64l40.1-137.211c2.463-8.433-2.381-17.285-10.813-19.748-8.448-2.468-17.306 2.36-19.773 10.819l-66.442 227.287c-4.7-10.9-10.163-21.545-16.364-31.739-13.548-22.282-30.008-41.738-48.594-58.173-14.182-92.006 31.094-183.813 112.84-228.582 16.297-8.904 33.423-15.698 51.154-20.285l-17.679 60.503c-2.463 8.448 2.381 17.295 10.819 19.768 8.438 2.463 17.29-2.376 19.763-10.834l25.057-85.673c3.169-10.89-6.252-21.821-17.5-20.25-30.505 4.25-59.73 13.937-86.922 28.82-84.46 46.264-134.866 136.433-131.84 231.025-78.73-48.773-181.514-52.69-265.923-1.367-26.486 16.092-49.495 36.572-68.419 60.851-6.979 8.98-2.227 22.595 8.796 25.277l279.752 68.224c-110.054 29.819-190.131 131.794-187.443 250.803 0.696 30.981 6.927 61.158 18.504 89.672 4.26 10.522 18.427 13.251 26.286 5.018l184.709-193.239c12.134 12.16 28.902 19.722 47.391 19.722 14.049 0 27.085-4.352 37.842-11.781 8.243 38.569 14.853 77.763 19.64 116.762 7.357 59.709 10.624 120.438 9.866 180.741-25.155-2.079-50.452-3.169-75.837-3.169-79.867 0-158.735 10.532-234.839 30.879-8.31 6.339-21.996 19.19-13.076 27.438 4.608 4.28 12.186 4.731 19.236 3.85 74.056-19.978 150.886-30.29 228.675-30.29 89.708 0 178.115 13.691 262.502 40.12 14.659-4.419 29.425-12.242 30.111-23.66-30.792-10.47-62.116-19.308-93.901-26.399-3.651-62.971-11.996-126.049-24.827-187.709-8.289-39.849-18.632-79.698-30.7-118.671 10.66-2.57 20.321-7.7 28.308-14.7l181.709 190.111c7.854 8.228 22.026 5.499 26.296-5.002 11.571-28.529 17.792-58.711 18.499-89.692 2.693-119.009-77.373-220.989-187.448-250.803l279.757-68.224c11.023-2.688 15.785-16.307 8.781-25.277zM160.046 341.274c12.836-13.051 27.274-24.494 43.141-34.135 104.612-63.59 241.449-30.223 305.039 74.388 5.591 9.185 10.491 18.816 14.684 28.682-5.714 4.495-10.691 9.887-14.689 15.995l-348.175-84.931zM429.292 539.3c0 6.502 0.952 12.78 2.673 18.708l-172.774 180.792c-4.91-17.659-7.593-35.901-8.008-54.451-2.77-122.388 94.541-224.215 216.929-226.995 9.795-0.2 19.589 0.22 29.292 1.285-0.077 1.388-0.133 2.78-0.133 4.178 0 3.226 0.256 6.426 0.707 9.605-0.589-0.020-1.172-0.036-1.777-0.036-36.895 0-66.908 30.013-66.908 66.913zM496.215 574.351c-19.323 0-35.052-15.729-35.052-35.052s15.729-35.062 35.052-35.062c19.323 0 35.062 15.744 35.062 35.062s-15.744 35.052-35.062 35.052zM555.699 508.703c-4.792-9.272-11.674-17.29-20.045-23.419-0.317-1.695-0.922-3.369-1.828-4.956-3.057-5.284-4.68-11.341-4.68-17.505 0-19.323 15.724-35.057 35.057-35.057 19.323 0 35.062 15.734 35.062 35.057 0 4.014-0.671 7.936-2.002 11.689-0.041 0.123-0.072 0.236-0.108 0.348-18.033 5.064-33.009 17.5-41.457 33.843zM564.035 582.4c8.586 10.158 20.137 17.751 33.3 21.391 6.001 18.78 11.556 37.801 16.671 56.94l-34.365 5.74c-4.342-28.17-9.544-56.289-15.606-84.070zM654.065 904.1c-19.425-3.62-38.999-6.6-58.68-8.919 0.456-31.109-0.123-62.331-1.792-93.481h49.633c5.012 33.971 8.607 68.198 10.839 102.4zM638.039 769.818h-46.551c-1.603-20.92-3.615-41.769-6.164-62.5-0.384-3.092-0.794-6.2-1.203-9.288l37.77-6.292c3.031 12.57 5.883 25.17 8.499 37.77 2.79 13.384 5.315 26.824 7.649 40.31zM615.178 574.351c-19.318 0-35.062-15.729-35.062-35.052s15.739-35.062 35.062-35.062c19.338 0 35.052 15.744 35.052 35.062s-15.708 35.052-35.052 35.052zM853.847 684.349c-0.42 18.55-3.108 36.792-8.013 54.441l-168.044-175.841c2.78-7.352 4.326-15.309 4.326-23.649 0-31.749-22.226-58.383-51.937-65.208 0.63-3.702 0.942-7.47 0.942-11.269 0-1.843-0.092-3.661-0.225-5.463 1.997 0 4.014-0.026 6.021 0 122.383 2.78 219.709 104.602 216.929 226.99zM616.663 421.35c-7.685-9.702-17.981-17.229-29.839-21.514 3.052-6.246 6.369-12.39 9.974-18.319 63.58-104.607 200.428-137.974 305.029-74.378 15.882 9.641 30.316 21.074 43.162 34.135l-328.325 80.077z",
          "M550.083 861.66c-1.946-5.688-7.47-9.631-15.79-11.382 6.62-18.58 5.34-33.562-3.635-38.922-1.853-1.111-4.562-2.099-8.177-1.951 3.343-14.469 1.126-25.349-6.333-29.809-5.432-3.251-12.646-2.412-20.577 2.202 0.456-12.82-3.236-21.888-10.511-24.991-7.127-3.062-16.082 0.369-24.893 9.242-2.493-10.342-7.532-16.829-14.382-18.248-6.999-1.49-14.479 2.749-21.064 11.72-7.393-8.3-15.232-11.822-22.062-9.692-6.692 2.058-11.085 9.001-12.6 19.502-9.605-7.982-18.842-10.542-25.661-6.851-6.943 3.789-9.779 13.169-8.105 25.882-8.325-3.85-15.601-3.999-20.695-0.271-7.004 5.151-8.197 16.2-3.497 30.29-3.62 0.189-6.216 1.418-7.967 2.698-8.428 6.19-8.284 21.222 0.046 39.101-8.125 2.519-13.256 6.979-14.653 12.8-2.13 8.878 4.797 18.56 18.995 26.578 12.442 7.060 26.829 10.399 41.615 9.702l123.013-5.801c14.787-0.681 28.81-5.381 40.53-13.558 13.368-9.324 19.348-19.63 16.404-28.242zM528.579 882.601c-10.348 7.219-22.743 11.351-35.866 11.96l-123.003 5.801c-13.117 0.609-25.836-2.33-36.813-8.54-9.861-5.591-15.764-12.319-14.71-16.768 0.799-3.338 5.765-6.139 13.261-7.47 1.413-0.241 2.606-1.162 3.246-2.442 0.609-1.311 0.584-2.801-0.092-4.060-9.18-17.050-9.528-29.64-5.192-32.819 0.886-0.66 2.007-0.932 3.18-0.988 1.705-0.092 3.558 0.328 5.069 0.799 1.669 0.522 3.492 0.031 4.649-1.27 1.178-1.311 1.464-3.19 0.763-4.782-6.518-14.7-5.719-24.161-2.217-26.742 3.4-2.488 10.952-0.282 19.236 5.658 1.526 1.091 3.599 1.111 5.146 0.020 1.551-1.070 2.243-3.031 1.746-4.838-3.523-12.728-2.826-23.352 1.679-25.789 4.378-2.401 13.42 2.509 21.985 11.919 1.244 1.362 3.195 1.818 4.92 1.152 1.736-0.691 2.842-2.371 2.821-4.219-0.179-11.141 2.616-19.517 6.912-20.849 3.978-1.229 10.322 3.241 16.159 11.382 0.886 1.249 2.33 1.951 3.84 1.859 1.5-0.072 2.883-0.911 3.635-2.212 5.043-8.648 10.931-13.711 15.022-12.841 4.408 0.911 7.956 8.991 8.842 20.101 0.143 1.828 1.418 3.41 3.2 3.932 1.761 0.502 3.686-0.118 4.808-1.597 7.634-10.168 16.179-15.908 20.746-13.942 4.716 2.012 6.405 12.498 4.101 25.508-0.333 1.859 0.553 3.732 2.191 4.669 1.644 0.932 3.692 0.722 5.12-0.522 7.69-6.671 14.996-9.59 18.621-7.419 3.722 2.243 5.407 11.571 0.307 26.808-0.563 1.669-0.092 3.502 1.203 4.69 1.265 1.188 3.139 1.51 4.756 0.85 2.452-1.050 5.893-2.002 8.238-0.599 4.603 2.76 5.437 15.319-2.094 33.172-0.553 1.311-0.445 2.811 0.297 4.040 0.737 1.219 2.022 2.002 3.441 2.12 7.603 0.63 12.795 2.949 13.926 6.2 1.464 4.326-3.784 11.587-13.082 18.068z",
          "M550.083 861.66c-1.946-5.688-7.47-9.631-15.79-11.382 6.62-18.58 5.34-33.562-3.635-38.922-1.853-1.111-4.562-2.099-8.177-1.951 3.343-14.469 1.126-25.349-6.333-29.809-5.432-3.251-12.646-2.412-20.577 2.202 0.456-12.82-3.236-21.888-10.511-24.991-7.127-3.062-16.082 0.369-24.893 9.242-2.493-10.342-7.532-16.829-14.382-18.248-6.999-1.49-14.479 2.749-21.064 11.72-7.393-8.3-15.232-11.822-22.062-9.692-6.692 2.058-11.085 9.001-12.6 19.502-9.605-7.982-18.842-10.542-25.661-6.851-6.943 3.789-9.779 13.169-8.105 25.882-8.325-3.85-15.601-3.999-20.695-0.271-7.004 5.151-8.197 16.2-3.497 30.29-3.62 0.189-6.216 1.418-7.967 2.698-8.428 6.19-8.284 21.222 0.046 39.101-8.125 2.519-13.256 6.979-14.653 12.8-2.13 8.878 4.797 18.56 18.995 26.578 12.442 7.060 26.829 10.399 41.615 9.702l123.013-5.801c14.787-0.681 28.81-5.381 40.53-13.558 13.368-9.324 19.348-19.63 16.404-28.242zM528.579 882.601c-10.348 7.219-22.743 11.351-35.866 11.96l-123.003 5.801c-13.117 0.609-25.836-2.33-36.813-8.54-9.861-5.591-15.764-12.319-14.71-16.768 0.799-3.338 5.765-6.139 13.261-7.47 1.413-0.241 2.606-1.162 3.246-2.442 0.609-1.311 0.584-2.801-0.092-4.060-9.18-17.050-9.528-29.64-5.192-32.819 0.886-0.66 2.007-0.932 3.18-0.988 1.705-0.092 3.558 0.328 5.069 0.799 1.669 0.522 3.492 0.031 4.649-1.27 1.178-1.311 1.464-3.19 0.763-4.782-6.518-14.7-5.719-24.161-2.217-26.742 3.4-2.488 10.952-0.282 19.236 5.658 1.526 1.091 3.599 1.111 5.146 0.020 1.551-1.070 2.243-3.031 1.746-4.838-3.523-12.728-2.826-23.352 1.679-25.789 4.378-2.401 13.42 2.509 21.985 11.919 1.244 1.362 3.195 1.818 4.92 1.152 1.736-0.691 2.842-2.371 2.821-4.219-0.179-11.141 2.616-19.517 6.912-20.849 3.978-1.229 10.322 3.241 16.159 11.382 0.886 1.249 2.33 1.951 3.84 1.859 1.5-0.072 2.883-0.911 3.635-2.212 5.043-8.648 10.931-13.711 15.022-12.841 4.408 0.911 7.956 8.991 8.842 20.101 0.143 1.828 1.418 3.41 3.2 3.932 1.761 0.502 3.686-0.118 4.808-1.597 7.634-10.168 16.179-15.908 20.746-13.942 4.716 2.012 6.405 12.498 4.101 25.508-0.333 1.859 0.553 3.732 2.191 4.669 1.644 0.932 3.692 0.722 5.12-0.522 7.69-6.671 14.996-9.59 18.621-7.419 3.722 2.243 5.407 11.571 0.307 26.808-0.563 1.669-0.092 3.502 1.203 4.69 1.265 1.188 3.139 1.51 4.756 0.85 2.452-1.050 5.893-2.002 8.238-0.599 4.603 2.76 5.437 15.319-2.094 33.172-0.553 1.311-0.445 2.811 0.297 4.040 0.737 1.219 2.022 2.002 3.441 2.12 7.603 0.63 12.795 2.949 13.926 6.2 1.464 4.326-3.784 11.587-13.082 18.068z"
        ],
        "attrs": [
          {
            "fill": "rgb(6, 75, 117)"
          },
          {
            "fill": "rgb(6, 75, 117)"
          },
          {
            "fill": "none",
            "stroke": "rgb(6, 75, 117)",
            "strokeLinejoin": "miter",
            "strokeLinecap": "butt",
            "strokeMiterlimit": "10",
            "strokeWidth": 20.48
          }
        ],
        "isMulticolor": false,
        "isMulticolor2": true,
        "grid": 24,
        "tags": [
          "Vegetacion"
        ],
        "colorPermutations": {
          "27511716751171": [
            {
              "f": 1
            },
            {
              "f": 1
            },
            {
              "s": 1
            }
          ]
        }
      },
      "attrs": [
        {
          "fill": "rgb(6, 75, 117)"
        },
        {
          "fill": "rgb(6, 75, 117)"
        },
        {
          "fill": "none",
          "stroke": "rgb(6, 75, 117)",
          "strokeLinejoin": "miter",
          "strokeLinecap": "butt",
          "strokeMiterlimit": "10",
          "strokeWidth": 20.48
        }
      ],
      "properties": {
        "order": 99,
        "id": 2,
        "name": "Vegetacion",
        "prevSize": 24,
        "code": 59663
      },
      "setIdx": 0,
      "setId": 2,
      "iconIdx": 14
    },
    {
      "icon": {
        "paths": [
          "M597.668 194.079v-72.545c0-8.248-6.702-14.93-14.945-14.93h-48.778v-64.707c0-8.248-6.687-14.935-14.935-14.935s-14.935 6.687-14.935 14.935v64.707h-48.773c-8.253 0-14.935 6.682-14.935 14.93v72.545c-181.489 36.603-318.577 197.289-318.577 389.396 0 219.034 178.196 397.235 397.225 397.235 56.387 0 111.672-12.006 162.355-34.683l0.947 3.789c1.669 6.646 7.644 11.31 14.495 11.31 6.84 0 12.826-4.664 14.479-11.31l5.468-21.832c21.622-12.401 42.148-26.87 61.261-43.32 6.257-5.381 6.953-14.802 1.577-21.053-5.381-6.252-14.802-6.958-21.053-1.582-10.035 8.637-20.506 16.686-31.324 24.125l6.533-26.148 79.401-27.105c6.036-2.068 10.097-7.752 10.097-14.141s-4.060-12.063-10.097-14.136l-79.401-27.1-22.461-89.825c-1.654-6.641-7.639-11.3-14.479-11.3-6.851 0-12.826 4.659-14.495 11.3l-22.446 89.825-79.401 27.1c-6.031 2.068-10.102 7.747-10.102 14.136s4.070 12.068 10.102 14.141l79.401 27.105 14.136 56.54c-35.845 16.671-74.276 27.52-113.818 31.969 10.476-18.857 19.661-46.095 27.674-81.946 1.792-8.049-3.267-16.041-11.315-17.833-8.054-1.797-16.036 3.267-17.838 11.315-16.579 74.102-34.662 90.783-39.68 90.783-5.417 0-24.689-18.381-41.708-100.086-1.024-4.884-2.002-9.887-2.954-14.986 14.73 1.034 29.629 1.582 44.662 1.582 8.238 0 14.94-6.692 14.94-14.94s-6.697-14.93-14.94-14.93c-16.809 0-33.403-0.701-49.772-2.053-5.868-38.733-10.112-82.196-12.534-128.415 20.413 0.691 41.226 1.050 62.305 1.050 21.059 0 41.856-0.358 62.264-1.050-1.736 32.778-4.372 64.389-7.869 93.814-0.963 8.182 4.879 15.621 13.082 16.589 8.172 0.978 15.616-4.874 16.589-13.071 3.671-30.904 6.41-64.138 8.172-98.601 51.482-2.621 99.753-7.439 142.254-14.234-4.25 29.962-10.972 58.972-20.168 86.81-2.601 7.828 1.674 16.276 9.492 18.867 7.828 2.586 16.276-1.659 18.867-9.492 10.737-32.522 18.284-66.529 22.656-101.652 2.708-0.538 5.396-1.075 8.028-1.623 37.678-7.839 66.565-16.891 86.953-27.259-14.008 42.906-48.609 82.499-100.833 114.422-7.030 4.301-9.262 13.496-4.951 20.526 4.301 7.045 13.486 9.262 20.531 4.961 27.791-16.978 51.149-36.091 69.765-56.786-8.433 22.973-19.169 45.148-32.148 66.145-4.337 7.014-2.166 16.215 4.854 20.552 7.014 4.337 16.215 2.171 20.552-4.849 38.702-62.566 59.141-134.712 59.141-208.64-0.015-192.118-137.098-352.804-318.592-389.407v0zM631.521 818.76l45.681-15.606c4.792-1.638 8.433-5.596 9.656-10.506l9.948-39.752 9.938 39.752c1.229 4.91 4.859 8.863 9.661 10.506l45.686 15.606-45.686 15.606c-4.803 1.633-8.428 5.601-9.661 10.516l-9.938 39.747-9.948-39.747c-1.219-4.925-4.864-8.878-9.656-10.516l-45.681-15.606zM470.236 136.468h97.562v52.772c-15.99-1.956-32.261-2.99-48.783-2.99-16.512 0-32.794 1.034-48.773 2.99v-52.772zM519.009 329.61c-15.022 0-29.932 0.548-44.652 1.587 0.957-5.11 1.93-10.117 2.954-14.991 17.019-81.705 36.291-100.096 41.697-100.096 5.412 0 24.689 18.396 41.708 100.096 1.009 4.874 2.002 9.887 2.954 14.991-14.725-1.039-29.624-1.587-44.662-1.587v0zM568.781 361.533c5.873 38.728 10.107 82.186 12.534 128.415-20.413-0.691-41.236-1.039-62.305-1.039s-41.882 0.348-62.295 1.039c2.427-46.223 6.666-89.687 12.534-128.415 16.364-1.357 32.963-2.053 49.761-2.053 16.794-0.005 33.408 0.696 49.772 2.053v0zM475.878 222.080c-10.583 20.434-19.825 49.684-27.812 88.028-1.613 7.747-3.139 15.775-4.598 24.033-40.397 4.91-79.084 13.763-114.944 26.24 35.558-71.004 87.629-121.641 147.354-138.301v0zM425.482 645.78c-52.7-2.77-101.816-7.88-144.42-15.094-1.306-15.457-1.976-31.217-1.976-47.212 0-15.985 0.671-31.744 1.976-47.201 42.604-7.204 91.72-12.329 144.42-15.094-0.696 20.413-1.044 41.231-1.044 62.305-0 21.069 0.348 41.882 1.044 62.295v0zM426.742 675.738c2.304 45.153 6.292 87.844 11.822 126.336-45.44-6.205-88.376-17.674-126.894-33.92-12.462-32.696-21.729-68.577-27.116-106.639 42.476 6.784 90.742 11.607 142.188 14.223v0zM426.742 491.208c-51.446 2.621-99.717 7.439-142.188 14.228 5.396-38.067 14.653-73.948 27.116-106.634 38.518-16.236 81.454-27.715 126.894-33.92-5.53 38.492-9.518 81.172-11.822 126.326v0zM378.025 244.26c-18.627 16.809-35.963 37.079-51.656 60.605-14.597 21.893-27.244 45.891-37.862 71.506-16.794 7.634-32.753 16.133-47.734 25.492-26.358 16.471-48.645 34.898-66.56 54.789 35.41-95.933 109.783-173.164 203.812-212.393v0zM256.609 427.192c5.565-3.471 11.29-6.82 17.142-10.051-9.283 29.788-16.026 61.251-20.070 93.783-2.703 0.527-5.386 1.070-8.033 1.618-37.652 7.839-66.54 16.891-86.922 27.244 13.768-42.066 47.34-81.014 97.884-112.594v0zM151.66 583.475c0-5.386 18.243-24.504 99.016-41.462-0.957 13.686-1.454 27.52-1.454 41.462 0 13.957 0.502 27.786 1.454 41.477-80.773-16.963-99.016-36.096-99.016-41.477v0zM245.642 654.408c2.647 0.553 5.33 1.091 8.033 1.633 4.045 32.527 10.788 63.985 20.070 93.757-5.852-3.226-11.576-6.564-17.142-10.035-50.54-31.59-84.111-70.533-97.884-112.589 20.383 10.358 49.275 19.395 86.922 27.233v0zM174.213 710.292c17.92 19.901 40.202 38.328 66.56 54.804 14.966 9.354 30.935 17.853 47.724 25.482 10.624 25.62 23.27 49.618 37.868 71.506 15.693 23.542 33.029 43.812 51.656 60.605-94.024-39.235-168.397-116.449-203.807-212.398v0zM475.878 944.886c-59.725-16.671-111.795-67.308-147.348-138.322 35.855 12.483 74.547 21.335 114.944 26.24 1.454 8.264 2.985 16.297 4.598 24.044 7.997 38.344 17.224 67.599 27.807 88.038v0zM582.61 647.091c-20.813 0.732-42.066 1.106-63.601 1.106-21.545 0-42.788-0.374-63.601-1.106-0.732-20.813-1.106-42.071-1.106-63.616 0-21.54 0.374-42.788 1.106-63.611 20.808-0.722 42.056-1.096 63.601-1.096 21.55 0 42.798 0.374 63.611 1.096 0.732 20.818 1.106 42.071 1.106 63.611 0 21.396-0.384 42.675-1.116 63.616v0zM594.56 334.147c-1.464-8.264-3-16.292-4.608-24.033-7.987-38.344-17.213-67.599-27.802-88.028 59.715 16.66 111.785 67.292 147.338 138.307-35.845-12.483-74.537-21.33-114.929-26.245v0zM599.465 364.882c45.44 6.205 88.366 17.684 126.894 33.92 12.462 32.686 21.719 68.567 27.126 106.634-42.481-6.789-90.752-11.607-142.193-14.228-2.309-45.153-6.303-87.834-11.827-126.326v0zM756.972 630.687c-42.604 7.214-91.735 12.324-144.425 15.094 0.701-20.526 1.044-41.359 1.044-62.305 0-21.069-0.353-41.882-1.039-62.3 52.685 2.77 101.816 7.885 144.42 15.094 1.306 15.462 1.981 31.222 1.981 47.206-0.005 15.939-0.676 31.677-1.981 47.212v0zM749.522 376.371c-10.614-25.61-23.276-49.608-37.868-71.506-15.683-23.532-33.034-43.802-51.656-60.605 94.039 39.235 168.402 116.465 203.807 212.398-17.905-19.891-40.197-38.318-66.555-54.789-14.976-9.364-30.935-17.864-47.729-25.498v0zM784.353 510.909c-4.040-32.522-10.783-63.99-20.086-93.768 5.868 3.231 11.592 6.579 17.157 10.051 50.534 31.575 84.116 70.533 97.879 112.579-20.378-10.348-49.265-19.389-86.922-27.228-2.632-0.553-5.33-1.091-8.028-1.633v0zM787.359 624.947c0.952-13.686 1.454-27.51 1.454-41.472 0-13.942-0.507-27.776-1.454-41.462 80.773 16.957 99.016 36.076 99.016 41.462 0 5.381-18.237 24.515-99.016 41.472v0zM787.359 624.947z",
          "M969.846 155.187l-79.37-27.1-22.461-89.81c-1.674-6.646-7.649-11.315-14.495-11.315s-12.82 4.669-14.479 11.315l-22.461 89.81-79.386 27.1c-6.047 2.068-10.112 7.752-10.112 14.141 0 6.38 4.065 12.068 10.112 14.131l79.386 27.105 22.461 89.815c1.659 6.636 7.634 11.305 14.479 11.305 6.861 0 12.82-4.669 14.495-11.305l22.461-89.815 79.37-27.105c6.052-2.063 10.112-7.752 10.112-14.131-0.005-6.39-4.065-12.073-10.112-14.141v0zM873.124 184.924c-4.792 1.638-8.433 5.601-9.667 10.511l-9.938 39.747-9.923-39.747c-1.229-4.92-4.874-8.873-9.667-10.511l-45.696-15.596 45.696-15.606c4.792-1.633 8.433-5.596 9.667-10.511l9.923-39.747 9.938 39.747c1.229 4.92 4.874 8.878 9.667 10.511l45.681 15.606-45.681 15.596zM873.124 184.924z",
          "M274.944 218.906l-79.38-27.1-22.456-89.815c-1.664-6.656-7.634-11.315-14.479-11.315-6.861 0-12.831 4.659-14.495 11.315l-22.461 89.81-79.386 27.105c-5.975 2.043-10.102 7.818-10.102 14.136s4.127 12.083 10.102 14.136l79.386 27.1 22.461 89.82c1.664 6.636 7.634 11.31 14.495 11.31 6.845 0 12.815-4.675 14.479-11.31l22.456-89.82 79.38-27.1c6.047-2.068 10.122-7.752 10.122-14.136s-4.081-12.068-10.122-14.136v0zM178.227 248.643c-4.808 1.638-8.443 5.601-9.672 10.511l-9.923 39.752-9.948-39.752c-1.219-4.92-4.864-8.873-9.651-10.511l-45.691-15.601 45.691-15.601c4.792-1.638 8.433-5.601 9.651-10.516l9.948-39.747 9.923 39.747c1.229 4.925 4.864 8.878 9.672 10.516l45.691 15.601-45.691 15.601zM178.227 248.643z"
        ],
        "attrs": [
          {
            "fill": "rgb(6, 75, 117)"
          },
          {
            "fill": "rgb(6, 75, 117)"
          },
          {
            "fill": "rgb(6, 75, 117)"
          }
        ],
        "isMulticolor": false,
        "isMulticolor2": false,
        "grid": 24,
        "tags": [
          "Vida nocturna"
        ],
        "colorPermutations": {
          "27511716751171": [
            {
              "f": 1
            },
            {
              "f": 1
            },
            {
              "f": 1
            }
          ]
        }
      },
      "attrs": [
        {
          "fill": "rgb(6, 75, 117)"
        },
        {
          "fill": "rgb(6, 75, 117)"
        },
        {
          "fill": "rgb(6, 75, 117)"
        }
      ],
      "properties": {
        "order": 94,
        "id": 1,
        "name": "Vida-nocturna",
        "prevSize": 24,
        "code": 59664
      },
      "setIdx": 0,
      "setId": 2,
      "iconIdx": 15
    },
    {
      "icon": {
        "paths": [
          "M418 380l-120 602h90l78-342 88 86v256h86v-320l-90-86 26-128c56 64 140 106 234 106v-84c-82 0-148-44-182-104l-44-68c-18-26-42-42-72-42-12 0-22 4-34 4l-222 94v200h86v-144l76-30zM576 234c-46 0-86-38-86-84s40-86 86-86 86 40 86 86-40 84-86 84z"
        ],
        "attrs": [
          {}
        ],
        "isMulticolor": false,
        "isMulticolor2": false,
        "tags": [
          "directions_walk"
        ],
        "grid": 24,
        "colorPermutations": {
          "27511716751171": [
            {}
          ]
        }
      },
      "attrs": [
        {}
      ],
      "properties": {
        "order": 95,
        "id": 0,
        "prevSize": 24,
        "code": 59679,
        "name": "directions_walk"
      },
      "setIdx": 0,
      "setId": 2,
      "iconIdx": 16
    }
  ],
  "height": 1024,
  "metadata": {
    "name": "icomoon"
  },
  "preferences": {
    "showGlyphs": true,
    "showQuickUse": true,
    "showQuickUse2": true,
    "showSVGs": true,
    "fontPref": {
      "prefix": "icon-",
      "metadata": {
        "fontFamily": "icomoon",
        "majorVersion": 1,
        "minorVersion": 0
      },
      "metrics": {
        "emSize": 1024,
        "baseline": 6.25,
        "whitespace": 50
      },
      "embed": false,
      "showSelector": true,
      "showMetrics": true,
      "showMetadata": false,
      "showVersion": true
    },
    "imagePref": {
      "prefix": "icon-",
      "png": true,
      "useClassSelector": true,
      "color": 0,
      "bgColor": 16777215,
      "classSelector": ".icon"
    },
    "historySize": 100,
    "showCodes": true,
    "gridSize": 16
  }
}