<?xml version="1.0" standalone="no"?>
<!DOCTYPE svg PUBLIC "-//W3C//DTD SVG 1.1//EN" "http://www.w3.org/Graphics/SVG/1.1/DTD/svg11.dtd" >
<svg xmlns="http://www.w3.org/2000/svg">
<metadata>Generated by IcoMoon</metadata>
<defs>
<font id="icomoon" horiz-adv-x="1024">
<font-face units-per-em="1024" ascent="960" descent="-64" />
<missing-glyph horiz-adv-x="1024" />
<glyph unicode="&#x20;" horiz-adv-x="512" d="" />
<glyph unicode="&#xe926;" glyph-name="hotel" d="M106.666 256.001h810.666c11.792 0 21.334 9.542 21.334 21.334s-9.542 21.334-21.334 21.334h-22.356c-9.86 198.514-155.236 359.626-340.31 381.344v45.322h42.666c11.792 0 21.334 9.542 21.334 21.334v21.332c0 47.062-38.27 85.334-85.334 85.334h-42.666c-47.062 0-85.334-38.27-85.334-85.334v-21.334c0-11.792 9.542-21.334 21.334-21.334h42.666v-45.322c-185.072-21.72-330.45-182.83-340.308-381.344h-22.358c-11.792 0-21.334-9.542-21.334-21.334 0.002-11.792 9.544-21.332 21.334-21.332zM254.48 437.063c53.438 95.77 152.126 155.25 257.52 155.25 11.792 0 21.334-9.542 21.334-21.334s-9.542-21.332-21.334-21.332c-89.958 0-174.354-51.104-220.27-133.376-3.896-7-11.166-10.938-18.646-10.938-3.52 0-7.084 0.876-10.376 2.708-10.292 5.73-13.978 18.73-8.228 29.022zM938.666 170.667v21.334c0 11.792-9.542 21.334-21.334 21.334h-810.666c-11.792 0-21.334-9.542-21.334-21.334v-21.334c-47.062 0-85.332-38.27-85.332-85.334v-64c0-11.792 9.542-21.334 21.334-21.334h981.334c11.792 0 21.334 9.542 21.334 21.334v64c-0.002 47.064-38.272 85.334-85.336 85.334z" />
</font></defs></svg>